<?xml version="1.0" encoding="UTF-8" standalone="no"?>
<!-- Created with Inkscape (http://www.inkscape.org/) -->

<svg
   width="240"
   height="240"
   viewBox="0 0 63.499997 63.499997"
   version="1.1"
   id="svg5"
   inkscape:version="1.2.2 (b0a8486541, 2022-12-01)"
   sodipodi:docname="logo-20mm.svg"
   xmlns:inkscape="http://www.inkscape.org/namespaces/inkscape"
   xmlns:sodipodi="http://sodipodi.sourceforge.net/DTD/sodipodi-0.dtd"
   xmlns="http://www.w3.org/2000/svg"
   xmlns:svg="http://www.w3.org/2000/svg">
  <sodipodi:namedview
     id="namedview7"
     pagecolor="#ffffff"
     bordercolor="#666666"
     borderopacity="1.0"
     inkscape:showpageshadow="2"
     inkscape:pageopacity="0.0"
     inkscape:pagecheckerboard="0"
     inkscape:deskcolor="#d1d1d1"
     inkscape:document-units="mm"
     showgrid="true"
     inkscape:zoom="5.5583333"
     inkscape:cx="120"
     inkscape:cy="92.833583"
     inkscape:window-width="1920"
     inkscape:window-height="1015"
     inkscape:window-x="0"
     inkscape:window-y="0"
     inkscape:window-maximized="1"
     inkscape:current-layer="layer1">
    <inkscape:grid
       type="xygrid"
       id="grid245"
       spacingx="1.3229166"
       spacingy="1.3229166"
       originx="0"
       originy="0" />
  </sodipodi:namedview>
  <defs
     id="defs2" />
  <g
     inkscape:label="Layer 1"
     inkscape:groupmode="layer"
     id="layer1">
    <path
       style="fill:#000000;fill-opacity:1;stroke:none;stroke-width:0.0999999px;stroke-linecap:butt;stroke-linejoin:miter;stroke-opacity:1"
       d="M 5.2916666,5.2916666 7.2916669,25.291667 H 9.2916666 L 11.291667,5.2916666 H 9.2916666 L 8.2916665,13.291666 7.2916669,5.2916666 Z"
       id="path247"
       sodipodi:nodetypes="cccccccc" />
    <path
       style="fill:#000000;fill-opacity:1;stroke:none;stroke-width:0.0999999px;stroke-linecap:butt;stroke-linejoin:miter;stroke-opacity:1"
       d="M 12.291667,5.2916666 V 25.291667 h 1.999999 V 9.2916663 l 1.000001,4.0000007 1.000001,-4.0000004 V 25.291667 h 1.999999 V 5.2916666 h -1.999999 l -1.000001,1 -1.000001,-1 z"
       id="path249"
       sodipodi:nodetypes="ccccccccccccc" />
    <path
       style="fill:#080808;fill-opacity:1;stroke:none;stroke-width:0.0999999px;stroke-linecap:butt;stroke-linejoin:miter;stroke-opacity:1"
       d="M 19.291666,5.2916666 V 25.291667 h 2.500001 v -10 c 0,0 3.5,-1.000001 3.5,-5 0,-3.0000001 -2,-5.0000004 -3.999999,-5.0000004 z"
       id="path426"
       sodipodi:nodetypes="ccccscc" />
    <path
       style="fill:#ffffff;fill-opacity:1;stroke:none;stroke-width:0.0999999px;stroke-linecap:butt;stroke-linejoin:miter;stroke-opacity:1"
       d="m 21.791667,7.2916665 v 4.9999995 c 0,0 0.999999,-0.5 0.999999,-2.4999996 0,-2.0000001 -0.999999,-2.4999999 -0.999999,-2.4999999 z"
       id="path524"
       sodipodi:nodetypes="ccsc" />
  </g>
</svg>
