(kicad_sch (version 20230121) (generator eeschema)

  (uuid 4acb106d-db1e-41d3-8068-e1d722012b60)

  (paper "A4")

  (title_block
    (title "Tempory Register Bit")
    (date "2023-04-22")
    (rev "A")
  )

  (lib_symbols
    (symbol "Device:C_Small" (pin_numbers hide) (pin_names (offset 0.254) hide) (in_bom yes) (on_board yes)
      (property "Reference" "C" (at 0.254 1.778 0)
        (effects (font (size 1.27 1.27)) (justify left))
      )
      (property "Value" "C_Small" (at 0.254 -2.032 0)
        (effects (font (size 1.27 1.27)) (justify left))
      )
      (property "Footprint" "" (at 0 0 0)
        (effects (font (size 1.27 1.27)) hide)
      )
      (property "Datasheet" "~" (at 0 0 0)
        (effects (font (size 1.27 1.27)) hide)
      )
      (property "ki_keywords" "capacitor cap" (at 0 0 0)
        (effects (font (size 1.27 1.27)) hide)
      )
      (property "ki_description" "Unpolarized capacitor, small symbol" (at 0 0 0)
        (effects (font (size 1.27 1.27)) hide)
      )
      (property "ki_fp_filters" "C_*" (at 0 0 0)
        (effects (font (size 1.27 1.27)) hide)
      )
      (symbol "C_Small_0_1"
        (polyline
          (pts
            (xy -1.524 -0.508)
            (xy 1.524 -0.508)
          )
          (stroke (width 0.3302) (type default))
          (fill (type none))
        )
        (polyline
          (pts
            (xy -1.524 0.508)
            (xy 1.524 0.508)
          )
          (stroke (width 0.3048) (type default))
          (fill (type none))
        )
      )
      (symbol "C_Small_1_1"
        (pin passive line (at 0 2.54 270) (length 2.032)
          (name "~" (effects (font (size 1.27 1.27))))
          (number "1" (effects (font (size 1.27 1.27))))
        )
        (pin passive line (at 0 -2.54 90) (length 2.032)
          (name "~" (effects (font (size 1.27 1.27))))
          (number "2" (effects (font (size 1.27 1.27))))
        )
      )
    )
    (symbol "Device:R_US" (pin_numbers hide) (pin_names (offset 0)) (in_bom yes) (on_board yes)
      (property "Reference" "R" (at 2.54 0 90)
        (effects (font (size 1.27 1.27)))
      )
      (property "Value" "R_US" (at -2.54 0 90)
        (effects (font (size 1.27 1.27)))
      )
      (property "Footprint" "" (at 1.016 -0.254 90)
        (effects (font (size 1.27 1.27)) hide)
      )
      (property "Datasheet" "~" (at 0 0 0)
        (effects (font (size 1.27 1.27)) hide)
      )
      (property "ki_keywords" "R res resistor" (at 0 0 0)
        (effects (font (size 1.27 1.27)) hide)
      )
      (property "ki_description" "Resistor, US symbol" (at 0 0 0)
        (effects (font (size 1.27 1.27)) hide)
      )
      (property "ki_fp_filters" "R_*" (at 0 0 0)
        (effects (font (size 1.27 1.27)) hide)
      )
      (symbol "R_US_0_1"
        (polyline
          (pts
            (xy 0 -2.286)
            (xy 0 -2.54)
          )
          (stroke (width 0) (type default))
          (fill (type none))
        )
        (polyline
          (pts
            (xy 0 2.286)
            (xy 0 2.54)
          )
          (stroke (width 0) (type default))
          (fill (type none))
        )
        (polyline
          (pts
            (xy 0 -0.762)
            (xy 1.016 -1.143)
            (xy 0 -1.524)
            (xy -1.016 -1.905)
            (xy 0 -2.286)
          )
          (stroke (width 0) (type default))
          (fill (type none))
        )
        (polyline
          (pts
            (xy 0 0.762)
            (xy 1.016 0.381)
            (xy 0 0)
            (xy -1.016 -0.381)
            (xy 0 -0.762)
          )
          (stroke (width 0) (type default))
          (fill (type none))
        )
        (polyline
          (pts
            (xy 0 2.286)
            (xy 1.016 1.905)
            (xy 0 1.524)
            (xy -1.016 1.143)
            (xy 0 0.762)
          )
          (stroke (width 0) (type default))
          (fill (type none))
        )
      )
      (symbol "R_US_1_1"
        (pin passive line (at 0 3.81 270) (length 1.27)
          (name "~" (effects (font (size 1.27 1.27))))
          (number "1" (effects (font (size 1.27 1.27))))
        )
        (pin passive line (at 0 -3.81 90) (length 1.27)
          (name "~" (effects (font (size 1.27 1.27))))
          (number "2" (effects (font (size 1.27 1.27))))
        )
      )
    )
    (symbol "Transistor_FET:2N7002" (pin_names hide) (in_bom yes) (on_board yes)
      (property "Reference" "Q" (at 5.08 1.905 0)
        (effects (font (size 1.27 1.27)) (justify left))
      )
      (property "Value" "2N7002" (at 5.08 0 0)
        (effects (font (size 1.27 1.27)) (justify left))
      )
      (property "Footprint" "Package_TO_SOT_SMD:SOT-23" (at 5.08 -1.905 0)
        (effects (font (size 1.27 1.27) italic) (justify left) hide)
      )
      (property "Datasheet" "https://www.onsemi.com/pub/Collateral/NDS7002A-D.PDF" (at 0 0 0)
        (effects (font (size 1.27 1.27)) (justify left) hide)
      )
      (property "ki_keywords" "N-Channel Switching MOSFET" (at 0 0 0)
        (effects (font (size 1.27 1.27)) hide)
      )
      (property "ki_description" "0.115A Id, 60V Vds, N-Channel MOSFET, SOT-23" (at 0 0 0)
        (effects (font (size 1.27 1.27)) hide)
      )
      (property "ki_fp_filters" "SOT?23*" (at 0 0 0)
        (effects (font (size 1.27 1.27)) hide)
      )
      (symbol "2N7002_0_1"
        (polyline
          (pts
            (xy 0.254 0)
            (xy -2.54 0)
          )
          (stroke (width 0) (type default))
          (fill (type none))
        )
        (polyline
          (pts
            (xy 0.254 1.905)
            (xy 0.254 -1.905)
          )
          (stroke (width 0.254) (type default))
          (fill (type none))
        )
        (polyline
          (pts
            (xy 0.762 -1.27)
            (xy 0.762 -2.286)
          )
          (stroke (width 0.254) (type default))
          (fill (type none))
        )
        (polyline
          (pts
            (xy 0.762 0.508)
            (xy 0.762 -0.508)
          )
          (stroke (width 0.254) (type default))
          (fill (type none))
        )
        (polyline
          (pts
            (xy 0.762 2.286)
            (xy 0.762 1.27)
          )
          (stroke (width 0.254) (type default))
          (fill (type none))
        )
        (polyline
          (pts
            (xy 2.54 2.54)
            (xy 2.54 1.778)
          )
          (stroke (width 0) (type default))
          (fill (type none))
        )
        (polyline
          (pts
            (xy 2.54 -2.54)
            (xy 2.54 0)
            (xy 0.762 0)
          )
          (stroke (width 0) (type default))
          (fill (type none))
        )
        (polyline
          (pts
            (xy 0.762 -1.778)
            (xy 3.302 -1.778)
            (xy 3.302 1.778)
            (xy 0.762 1.778)
          )
          (stroke (width 0) (type default))
          (fill (type none))
        )
        (polyline
          (pts
            (xy 1.016 0)
            (xy 2.032 0.381)
            (xy 2.032 -0.381)
            (xy 1.016 0)
          )
          (stroke (width 0) (type default))
          (fill (type outline))
        )
        (polyline
          (pts
            (xy 2.794 0.508)
            (xy 2.921 0.381)
            (xy 3.683 0.381)
            (xy 3.81 0.254)
          )
          (stroke (width 0) (type default))
          (fill (type none))
        )
        (polyline
          (pts
            (xy 3.302 0.381)
            (xy 2.921 -0.254)
            (xy 3.683 -0.254)
            (xy 3.302 0.381)
          )
          (stroke (width 0) (type default))
          (fill (type none))
        )
        (circle (center 1.651 0) (radius 2.794)
          (stroke (width 0.254) (type default))
          (fill (type none))
        )
        (circle (center 2.54 -1.778) (radius 0.254)
          (stroke (width 0) (type default))
          (fill (type outline))
        )
        (circle (center 2.54 1.778) (radius 0.254)
          (stroke (width 0) (type default))
          (fill (type outline))
        )
      )
      (symbol "2N7002_1_1"
        (pin input line (at -5.08 0 0) (length 2.54)
          (name "G" (effects (font (size 1.27 1.27))))
          (number "1" (effects (font (size 1.27 1.27))))
        )
        (pin passive line (at 2.54 -5.08 90) (length 2.54)
          (name "S" (effects (font (size 1.27 1.27))))
          (number "2" (effects (font (size 1.27 1.27))))
        )
        (pin passive line (at 2.54 5.08 270) (length 2.54)
          (name "D" (effects (font (size 1.27 1.27))))
          (number "3" (effects (font (size 1.27 1.27))))
        )
      )
    )
    (symbol "power:GND" (power) (pin_names (offset 0)) (in_bom yes) (on_board yes)
      (property "Reference" "#PWR" (at 0 -6.35 0)
        (effects (font (size 1.27 1.27)) hide)
      )
      (property "Value" "GND" (at 0 -3.81 0)
        (effects (font (size 1.27 1.27)))
      )
      (property "Footprint" "" (at 0 0 0)
        (effects (font (size 1.27 1.27)) hide)
      )
      (property "Datasheet" "" (at 0 0 0)
        (effects (font (size 1.27 1.27)) hide)
      )
      (property "ki_keywords" "global power" (at 0 0 0)
        (effects (font (size 1.27 1.27)) hide)
      )
      (property "ki_description" "Power symbol creates a global label with name \"GND\" , ground" (at 0 0 0)
        (effects (font (size 1.27 1.27)) hide)
      )
      (symbol "GND_0_1"
        (polyline
          (pts
            (xy 0 0)
            (xy 0 -1.27)
            (xy 1.27 -1.27)
            (xy 0 -2.54)
            (xy -1.27 -1.27)
            (xy 0 -1.27)
          )
          (stroke (width 0) (type default))
          (fill (type none))
        )
      )
      (symbol "GND_1_1"
        (pin power_in line (at 0 0 270) (length 0) hide
          (name "GND" (effects (font (size 1.27 1.27))))
          (number "1" (effects (font (size 1.27 1.27))))
        )
      )
    )
    (symbol "power:VDD" (power) (pin_names (offset 0)) (in_bom yes) (on_board yes)
      (property "Reference" "#PWR" (at 0 -3.81 0)
        (effects (font (size 1.27 1.27)) hide)
      )
      (property "Value" "VDD" (at 0 3.81 0)
        (effects (font (size 1.27 1.27)))
      )
      (property "Footprint" "" (at 0 0 0)
        (effects (font (size 1.27 1.27)) hide)
      )
      (property "Datasheet" "" (at 0 0 0)
        (effects (font (size 1.27 1.27)) hide)
      )
      (property "ki_keywords" "global power" (at 0 0 0)
        (effects (font (size 1.27 1.27)) hide)
      )
      (property "ki_description" "Power symbol creates a global label with name \"VDD\"" (at 0 0 0)
        (effects (font (size 1.27 1.27)) hide)
      )
      (symbol "VDD_0_1"
        (polyline
          (pts
            (xy -0.762 1.27)
            (xy 0 2.54)
          )
          (stroke (width 0) (type default))
          (fill (type none))
        )
        (polyline
          (pts
            (xy 0 0)
            (xy 0 2.54)
          )
          (stroke (width 0) (type default))
          (fill (type none))
        )
        (polyline
          (pts
            (xy 0 2.54)
            (xy 0.762 1.27)
          )
          (stroke (width 0) (type default))
          (fill (type none))
        )
      )
      (symbol "VDD_1_1"
        (pin power_in line (at 0 0 90) (length 0) hide
          (name "VDD" (effects (font (size 1.27 1.27))))
          (number "1" (effects (font (size 1.27 1.27))))
        )
      )
    )
  )

  (junction (at 95.25 54.61) (diameter 0) (color 0 0 0 0)
    (uuid 086e77cb-46c2-4f60-a453-de3a6c4979c2)
  )
  (junction (at 90.17 73.66) (diameter 0) (color 0 0 0 0)
    (uuid 163959a1-9b03-4ffb-b605-8325f82f567f)
  )
  (junction (at 53.34 86.36) (diameter 0) (color 0 0 0 0)
    (uuid 375b9804-df9e-4f27-98e3-9cb435ff1951)
  )
  (junction (at 53.34 73.66) (diameter 0) (color 0 0 0 0)
    (uuid 4237dda4-b618-455d-a655-6d0550d67c89)
  )
  (junction (at 82.55 54.61) (diameter 0) (color 0 0 0 0)
    (uuid 48a7b7a8-1bda-4cc8-9a33-b7c43e87205c)
  )
  (junction (at 90.17 86.36) (diameter 0) (color 0 0 0 0)
    (uuid 85e90ff8-e0f9-4570-8c3b-3992c7d9e6c4)
  )
  (junction (at 114.3 49.53) (diameter 0) (color 0 0 0 0)
    (uuid 867c36f5-c7e0-4cb6-bd80-66bd1c27be4a)
  )

  (wire (pts (xy 102.87 49.53) (xy 114.3 49.53))
    (stroke (width 0) (type default))
    (uuid 139106f4-c1fa-4fdb-baf5-afdf2f3ea82c)
  )
  (wire (pts (xy 90.17 73.66) (xy 114.3 73.66))
    (stroke (width 0) (type default))
    (uuid 1817d2c1-4b75-4e6e-a52d-278a90f96446)
  )
  (wire (pts (xy 60.96 54.61) (xy 60.96 68.58))
    (stroke (width 0) (type default))
    (uuid 40ec2ac9-4db0-4ca5-8e13-d79f64f4cbe3)
  )
  (wire (pts (xy 82.55 54.61) (xy 82.55 68.58))
    (stroke (width 0) (type default))
    (uuid 43be4d53-c6f9-4d02-86d0-9a9a305293d2)
  )
  (wire (pts (xy 60.96 78.74) (xy 60.96 81.28))
    (stroke (width 0) (type default))
    (uuid 5330cddd-b9c0-43bb-84da-3441c4f33547)
  )
  (wire (pts (xy 60.96 54.61) (xy 82.55 54.61))
    (stroke (width 0) (type default))
    (uuid 53bb8d19-df78-4215-96a7-8f4ad0f31bcc)
  )
  (wire (pts (xy 82.55 78.74) (xy 82.55 81.28))
    (stroke (width 0) (type default))
    (uuid 61b9a0b5-1c80-4c22-bf28-e0536d32761c)
  )
  (wire (pts (xy 49.53 86.36) (xy 53.34 86.36))
    (stroke (width 0) (type default))
    (uuid 6e5d395e-4ff3-43df-91b9-5a785959871e)
  )
  (wire (pts (xy 114.3 49.53) (xy 114.3 73.66))
    (stroke (width 0) (type default))
    (uuid 9a16756c-68aa-40ad-99a5-b26ee158a9a8)
  )
  (wire (pts (xy 49.53 73.66) (xy 53.34 73.66))
    (stroke (width 0) (type default))
    (uuid b94eadb7-6cda-45d1-9d83-bb725b620234)
  )
  (wire (pts (xy 114.3 49.53) (xy 119.38 49.53))
    (stroke (width 0) (type default))
    (uuid c8840650-ef22-4c82-9996-d236cc6644aa)
  )
  (wire (pts (xy 82.55 54.61) (xy 95.25 54.61))
    (stroke (width 0) (type default))
    (uuid f901bd30-c7f7-4468-a71d-65f2fcec719f)
  )
  (wire (pts (xy 93.98 86.36) (xy 90.17 86.36))
    (stroke (width 0) (type default))
    (uuid febd5c2d-a1e2-4923-8b5e-6d3e04504da8)
  )

  (hierarchical_label "W" (shape input) (at 49.53 86.36 180) (fields_autoplaced)
    (effects (font (size 1.27 1.27)) (justify right))
    (uuid 6ed4eebc-0881-4f6c-95ab-8ea17df372cb)
  )
  (hierarchical_label "~{W}" (shape input) (at 93.98 86.36 0) (fields_autoplaced)
    (effects (font (size 1.27 1.27)) (justify left))
    (uuid 966f3b8a-06a1-49b8-aa86-7e8fdefcea3b)
  )
  (hierarchical_label "Q" (shape input) (at 119.38 49.53 0) (fields_autoplaced)
    (effects (font (size 1.27 1.27)) (justify left))
    (uuid cf145624-47ce-4e36-acc7-36e4e2823edf)
  )
  (hierarchical_label "D" (shape input) (at 49.53 73.66 180) (fields_autoplaced)
    (effects (font (size 1.27 1.27)) (justify right))
    (uuid e95c8856-b667-49e7-a2bf-63329aba0cf0)
  )

  (symbol (lib_id "Transistor_FET:2N7002") (at 85.09 86.36 0) (mirror y) (unit 1)
    (in_bom yes) (on_board yes) (dnp no) (fields_autoplaced)
    (uuid 06113e45-c714-4b6a-91a1-e8db4b93af86)
    (property "Reference" "Q96" (at 79.883 85.5253 0)
      (effects (font (size 1.27 1.27)) (justify left))
    )
    (property "Value" "2N7002" (at 79.883 88.0622 0)
      (effects (font (size 1.27 1.27)) (justify left))
    )
    (property "Footprint" "Package_TO_SOT_SMD:SOT-23" (at 80.01 88.265 0)
      (effects (font (size 1.27 1.27) italic) (justify left) hide)
    )
    (property "Datasheet" "https://www.onsemi.com/pub/Collateral/NDS7002A-D.PDF" (at 85.09 86.36 0)
      (effects (font (size 1.27 1.27)) (justify left) hide)
    )
    (pin "1" (uuid 78309640-425a-4f83-a53d-c9fa4d38453f))
    (pin "2" (uuid e7b3fdce-273f-4f50-84ad-fc1691853c01))
    (pin "3" (uuid 20e00845-73cc-49b0-aaf0-4ab52db28c92))
    (instances
      (project "bit"
        (path "/4a9928a4-e16b-4a74-977a-67cb4c5d4db6/c4df6d68-cfb5-470b-a3f5-21b9353b844b"
          (reference "Q96") (unit 1)
        )
      )
    )
  )

  (symbol (lib_id "Device:R_US") (at 90.17 82.55 0) (mirror y) (unit 1)
    (in_bom yes) (on_board yes) (dnp no)
    (uuid 07f4202f-e3d6-43bc-9a5c-e3fe195bc4b8)
    (property "Reference" "R96" (at 91.44 81.28 0)
      (effects (font (size 1.27 1.27)) (justify right))
    )
    (property "Value" "9.1k" (at 95.7041 83.7864 0)
      (effects (font (size 1.27 1.27)) (justify left))
    )
    (property "Footprint" "Resistor_SMD:R_0805_2012Metric" (at 89.154 82.804 90)
      (effects (font (size 1.27 1.27)) hide)
    )
    (property "Datasheet" "~" (at 90.17 82.55 0)
      (effects (font (size 1.27 1.27)) hide)
    )
    (pin "1" (uuid 21b6b0b1-f12d-4d53-8e29-75b0089fd318))
    (pin "2" (uuid 3bfada9e-ebf2-4c23-b4d7-edd347609a89))
    (instances
      (project "bit"
        (path "/4a9928a4-e16b-4a74-977a-67cb4c5d4db6/c4df6d68-cfb5-470b-a3f5-21b9353b844b"
          (reference "R96") (unit 1)
        )
      )
    )
  )

  (symbol (lib_id "power:VDD") (at 90.17 66.04 0) (mirror y) (unit 1)
    (in_bom yes) (on_board yes) (dnp no) (fields_autoplaced)
    (uuid 0fec9de6-d9cd-416c-8932-b8dd3b711888)
    (property "Reference" "#PWR0155" (at 90.17 69.85 0)
      (effects (font (size 1.27 1.27)) hide)
    )
    (property "Value" "VDD" (at 90.17 62.4642 0)
      (effects (font (size 1.27 1.27)))
    )
    (property "Footprint" "" (at 90.17 66.04 0)
      (effects (font (size 1.27 1.27)) hide)
    )
    (property "Datasheet" "" (at 90.17 66.04 0)
      (effects (font (size 1.27 1.27)) hide)
    )
    (pin "1" (uuid 5c7fc95e-5eed-45f7-9be0-dbed2da01130))
    (instances
      (project "bit"
        (path "/4a9928a4-e16b-4a74-977a-67cb4c5d4db6/c4df6d68-cfb5-470b-a3f5-21b9353b844b"
          (reference "#PWR0155") (unit 1)
        )
      )
    )
  )

  (symbol (lib_id "power:GND") (at 60.96 91.44 0) (unit 1)
    (in_bom yes) (on_board yes) (dnp no) (fields_autoplaced)
    (uuid 1105411d-735f-47c5-985e-388251e004ad)
    (property "Reference" "#PWR0153" (at 60.96 97.79 0)
      (effects (font (size 1.27 1.27)) hide)
    )
    (property "Value" "GND" (at 60.96 95.8834 0)
      (effects (font (size 1.27 1.27)))
    )
    (property "Footprint" "" (at 60.96 91.44 0)
      (effects (font (size 1.27 1.27)) hide)
    )
    (property "Datasheet" "" (at 60.96 91.44 0)
      (effects (font (size 1.27 1.27)) hide)
    )
    (pin "1" (uuid 544fcf64-f2c0-4981-8ba3-be71998538a2))
    (instances
      (project "bit"
        (path "/4a9928a4-e16b-4a74-977a-67cb4c5d4db6/c4df6d68-cfb5-470b-a3f5-21b9353b844b"
          (reference "#PWR0153") (unit 1)
        )
      )
    )
  )

  (symbol (lib_id "Transistor_FET:2N7002") (at 85.09 73.66 0) (mirror y) (unit 1)
    (in_bom yes) (on_board yes) (dnp no) (fields_autoplaced)
    (uuid 134487c9-860a-4b68-ab24-1a637146e4e0)
    (property "Reference" "Q95" (at 79.883 72.8253 0)
      (effects (font (size 1.27 1.27)) (justify left))
    )
    (property "Value" "2N7002" (at 79.883 75.3622 0)
      (effects (font (size 1.27 1.27)) (justify left))
    )
    (property "Footprint" "Package_TO_SOT_SMD:SOT-23" (at 80.01 75.565 0)
      (effects (font (size 1.27 1.27) italic) (justify left) hide)
    )
    (property "Datasheet" "https://www.onsemi.com/pub/Collateral/NDS7002A-D.PDF" (at 85.09 73.66 0)
      (effects (font (size 1.27 1.27)) (justify left) hide)
    )
    (pin "1" (uuid 7c752b8e-5282-4f4f-8f90-3930235429d0))
    (pin "2" (uuid f3fd5fde-4e52-4341-95ff-85394273f922))
    (pin "3" (uuid 3f7b1099-a48b-47a3-b398-1c918f73bbe8))
    (instances
      (project "bit"
        (path "/4a9928a4-e16b-4a74-977a-67cb4c5d4db6/c4df6d68-cfb5-470b-a3f5-21b9353b844b"
          (reference "Q95") (unit 1)
        )
      )
    )
  )

  (symbol (lib_id "power:GND") (at 55.88 44.45 0) (unit 1)
    (in_bom yes) (on_board yes) (dnp no) (fields_autoplaced)
    (uuid 3777ee17-2229-4c10-96d0-fea16bd198af)
    (property "Reference" "#PWR0286" (at 55.88 50.8 0)
      (effects (font (size 1.27 1.27)) hide)
    )
    (property "Value" "GND" (at 55.88 48.8934 0)
      (effects (font (size 1.27 1.27)))
    )
    (property "Footprint" "" (at 55.88 44.45 0)
      (effects (font (size 1.27 1.27)) hide)
    )
    (property "Datasheet" "" (at 55.88 44.45 0)
      (effects (font (size 1.27 1.27)) hide)
    )
    (pin "1" (uuid 3510f1f7-e595-4686-acaa-ef494bc67690))
    (instances
      (project "bit"
        (path "/4a9928a4-e16b-4a74-977a-67cb4c5d4db6/c4df6d68-cfb5-470b-a3f5-21b9353b844b"
          (reference "#PWR0286") (unit 1)
        )
      )
    )
  )

  (symbol (lib_id "Device:R_US") (at 95.25 50.8 0) (unit 1)
    (in_bom yes) (on_board yes) (dnp no)
    (uuid 37b72973-7444-4a78-bca2-f8b48c00d392)
    (property "Reference" "R97" (at 93.98 49.53 0)
      (effects (font (size 1.27 1.27)) (justify right))
    )
    (property "Value" "9.1k" (at 89.7159 52.0364 0)
      (effects (font (size 1.27 1.27)) (justify left))
    )
    (property "Footprint" "Resistor_SMD:R_0805_2012Metric" (at 96.266 51.054 90)
      (effects (font (size 1.27 1.27)) hide)
    )
    (property "Datasheet" "~" (at 95.25 50.8 0)
      (effects (font (size 1.27 1.27)) hide)
    )
    (pin "1" (uuid 693e07fa-2546-4d4d-b44e-75f9501e4689))
    (pin "2" (uuid 91915c08-f1a4-43ad-88b7-275196715977))
    (instances
      (project "bit"
        (path "/4a9928a4-e16b-4a74-977a-67cb4c5d4db6/c4df6d68-cfb5-470b-a3f5-21b9353b844b"
          (reference "R97") (unit 1)
        )
      )
    )
  )

  (symbol (lib_id "power:VDD") (at 53.34 66.04 0) (unit 1)
    (in_bom yes) (on_board yes) (dnp no) (fields_autoplaced)
    (uuid 3ab1c427-3563-47be-aa5f-0ccd1025920d)
    (property "Reference" "#PWR0151" (at 53.34 69.85 0)
      (effects (font (size 1.27 1.27)) hide)
    )
    (property "Value" "VDD" (at 53.34 62.4642 0)
      (effects (font (size 1.27 1.27)))
    )
    (property "Footprint" "" (at 53.34 66.04 0)
      (effects (font (size 1.27 1.27)) hide)
    )
    (property "Datasheet" "" (at 53.34 66.04 0)
      (effects (font (size 1.27 1.27)) hide)
    )
    (pin "1" (uuid fe2bfba0-ea72-4cdb-a5b8-76ea85088e79))
    (instances
      (project "bit"
        (path "/4a9928a4-e16b-4a74-977a-67cb4c5d4db6/c4df6d68-cfb5-470b-a3f5-21b9353b844b"
          (reference "#PWR0151") (unit 1)
        )
      )
    )
  )

  (symbol (lib_id "Device:R_US") (at 90.17 69.85 0) (mirror y) (unit 1)
    (in_bom yes) (on_board yes) (dnp no)
    (uuid 3c334e1e-39fa-43c6-bc76-db577646a9da)
    (property "Reference" "R95" (at 91.44 68.58 0)
      (effects (font (size 1.27 1.27)) (justify right))
    )
    (property "Value" "9.1k" (at 95.7041 71.0864 0)
      (effects (font (size 1.27 1.27)) (justify left))
    )
    (property "Footprint" "Resistor_SMD:R_0805_2012Metric" (at 89.154 70.104 90)
      (effects (font (size 1.27 1.27)) hide)
    )
    (property "Datasheet" "~" (at 90.17 69.85 0)
      (effects (font (size 1.27 1.27)) hide)
    )
    (pin "1" (uuid 91322bb9-507a-467c-8415-f95809f43ae2))
    (pin "2" (uuid 70c9e612-d60a-4724-b44f-501a920bd579))
    (instances
      (project "bit"
        (path "/4a9928a4-e16b-4a74-977a-67cb4c5d4db6/c4df6d68-cfb5-470b-a3f5-21b9353b844b"
          (reference "R95") (unit 1)
        )
      )
    )
  )

  (symbol (lib_id "power:VDD") (at 95.25 46.99 0) (unit 1)
    (in_bom yes) (on_board yes) (dnp no) (fields_autoplaced)
    (uuid 65ac0a49-ae72-4098-a84b-716fda2e3172)
    (property "Reference" "#PWR0157" (at 95.25 50.8 0)
      (effects (font (size 1.27 1.27)) hide)
    )
    (property "Value" "VDD" (at 95.25 43.4142 0)
      (effects (font (size 1.27 1.27)))
    )
    (property "Footprint" "" (at 95.25 46.99 0)
      (effects (font (size 1.27 1.27)) hide)
    )
    (property "Datasheet" "" (at 95.25 46.99 0)
      (effects (font (size 1.27 1.27)) hide)
    )
    (pin "1" (uuid 357d7fad-1d0e-4d76-be76-bd0396185c9b))
    (instances
      (project "bit"
        (path "/4a9928a4-e16b-4a74-977a-67cb4c5d4db6/c4df6d68-cfb5-470b-a3f5-21b9353b844b"
          (reference "#PWR0157") (unit 1)
        )
      )
    )
  )

  (symbol (lib_id "Transistor_FET:2N7002") (at 58.42 86.36 0) (unit 1)
    (in_bom yes) (on_board yes) (dnp no) (fields_autoplaced)
    (uuid 6a730adc-13be-4ae8-a076-43e3814dabbc)
    (property "Reference" "Q94" (at 63.627 85.5253 0)
      (effects (font (size 1.27 1.27)) (justify left))
    )
    (property "Value" "2N7002" (at 63.627 88.0622 0)
      (effects (font (size 1.27 1.27)) (justify left))
    )
    (property "Footprint" "Package_TO_SOT_SMD:SOT-23" (at 63.5 88.265 0)
      (effects (font (size 1.27 1.27) italic) (justify left) hide)
    )
    (property "Datasheet" "https://www.onsemi.com/pub/Collateral/NDS7002A-D.PDF" (at 58.42 86.36 0)
      (effects (font (size 1.27 1.27)) (justify left) hide)
    )
    (pin "1" (uuid 5f3a0824-5b14-4378-aad8-7dc91a7a1fdc))
    (pin "2" (uuid 477a6ecd-0d98-4aa3-a1d8-725ffab6e2a1))
    (pin "3" (uuid 9452aff1-060b-41e0-9eb2-da01a8a84d47))
    (instances
      (project "bit"
        (path "/4a9928a4-e16b-4a74-977a-67cb4c5d4db6/c4df6d68-cfb5-470b-a3f5-21b9353b844b"
          (reference "Q94") (unit 1)
        )
      )
    )
  )

  (symbol (lib_id "Device:R_US") (at 53.34 82.55 0) (unit 1)
    (in_bom yes) (on_board yes) (dnp no)
    (uuid 75ed2911-6188-454d-8c2a-ac31a8dfb067)
    (property "Reference" "R94" (at 52.07 81.28 0)
      (effects (font (size 1.27 1.27)) (justify right))
    )
    (property "Value" "9.1k" (at 47.8059 83.7864 0)
      (effects (font (size 1.27 1.27)) (justify left))
    )
    (property "Footprint" "Resistor_SMD:R_0805_2012Metric" (at 54.356 82.804 90)
      (effects (font (size 1.27 1.27)) hide)
    )
    (property "Datasheet" "~" (at 53.34 82.55 0)
      (effects (font (size 1.27 1.27)) hide)
    )
    (pin "1" (uuid fdc1dfc1-3d2a-43ea-9921-f8b45d34ad3f))
    (pin "2" (uuid 0f661a92-9ba1-4290-bbd4-4a70d277a958))
    (instances
      (project "bit"
        (path "/4a9928a4-e16b-4a74-977a-67cb4c5d4db6/c4df6d68-cfb5-470b-a3f5-21b9353b844b"
          (reference "R94") (unit 1)
        )
      )
    )
  )

  (symbol (lib_id "power:GND") (at 82.55 91.44 0) (mirror y) (unit 1)
    (in_bom yes) (on_board yes) (dnp no) (fields_autoplaced)
    (uuid 84e39188-70a8-4a71-857d-0251739000e2)
    (property "Reference" "#PWR0154" (at 82.55 97.79 0)
      (effects (font (size 1.27 1.27)) hide)
    )
    (property "Value" "GND" (at 82.55 95.8834 0)
      (effects (font (size 1.27 1.27)))
    )
    (property "Footprint" "" (at 82.55 91.44 0)
      (effects (font (size 1.27 1.27)) hide)
    )
    (property "Datasheet" "" (at 82.55 91.44 0)
      (effects (font (size 1.27 1.27)) hide)
    )
    (pin "1" (uuid 95701ca1-659d-45ce-9684-ab41d869bf3b))
    (instances
      (project "bit"
        (path "/4a9928a4-e16b-4a74-977a-67cb4c5d4db6/c4df6d68-cfb5-470b-a3f5-21b9353b844b"
          (reference "#PWR0154") (unit 1)
        )
      )
    )
  )

  (symbol (lib_id "Transistor_FET:2N7002") (at 100.33 54.61 0) (unit 1)
    (in_bom yes) (on_board yes) (dnp no) (fields_autoplaced)
    (uuid 88d38f07-fada-4525-a79f-68c9a2c03b07)
    (property "Reference" "Q97" (at 105.537 53.7753 0)
      (effects (font (size 1.27 1.27)) (justify left))
    )
    (property "Value" "2N7002" (at 105.537 56.3122 0)
      (effects (font (size 1.27 1.27)) (justify left))
    )
    (property "Footprint" "Package_TO_SOT_SMD:SOT-23" (at 105.41 56.515 0)
      (effects (font (size 1.27 1.27) italic) (justify left) hide)
    )
    (property "Datasheet" "https://www.onsemi.com/pub/Collateral/NDS7002A-D.PDF" (at 100.33 54.61 0)
      (effects (font (size 1.27 1.27)) (justify left) hide)
    )
    (pin "1" (uuid f2d76634-9c23-4fc6-8469-24dadcea3c14))
    (pin "2" (uuid 5968e657-abb0-42cb-9ea4-32df1114cfc8))
    (pin "3" (uuid d8886657-d05f-402e-9000-108bad72ac38))
    (instances
      (project "bit"
        (path "/4a9928a4-e16b-4a74-977a-67cb4c5d4db6/c4df6d68-cfb5-470b-a3f5-21b9353b844b"
          (reference "Q97") (unit 1)
        )
      )
    )
  )

  (symbol (lib_id "power:VDD") (at 90.17 78.74 0) (mirror y) (unit 1)
    (in_bom yes) (on_board yes) (dnp no) (fields_autoplaced)
    (uuid 9307e2dd-74df-4ee7-890e-47ed6c15c35b)
    (property "Reference" "#PWR0156" (at 90.17 82.55 0)
      (effects (font (size 1.27 1.27)) hide)
    )
    (property "Value" "VDD" (at 90.17 75.1642 0)
      (effects (font (size 1.27 1.27)))
    )
    (property "Footprint" "" (at 90.17 78.74 0)
      (effects (font (size 1.27 1.27)) hide)
    )
    (property "Datasheet" "" (at 90.17 78.74 0)
      (effects (font (size 1.27 1.27)) hide)
    )
    (pin "1" (uuid 01b1c751-ecfd-452d-b241-3fce6f7d0f6c))
    (instances
      (project "bit"
        (path "/4a9928a4-e16b-4a74-977a-67cb4c5d4db6/c4df6d68-cfb5-470b-a3f5-21b9353b844b"
          (reference "#PWR0156") (unit 1)
        )
      )
    )
  )

  (symbol (lib_id "power:GND") (at 102.87 59.69 0) (mirror y) (unit 1)
    (in_bom yes) (on_board yes) (dnp no) (fields_autoplaced)
    (uuid 9cd24515-716f-4056-9b85-9931e4722a5d)
    (property "Reference" "#PWR0158" (at 102.87 66.04 0)
      (effects (font (size 1.27 1.27)) hide)
    )
    (property "Value" "GND" (at 102.87 64.1334 0)
      (effects (font (size 1.27 1.27)))
    )
    (property "Footprint" "" (at 102.87 59.69 0)
      (effects (font (size 1.27 1.27)) hide)
    )
    (property "Datasheet" "" (at 102.87 59.69 0)
      (effects (font (size 1.27 1.27)) hide)
    )
    (pin "1" (uuid 24c0333d-512d-4e06-b7ba-32465c5aeae9))
    (instances
      (project "bit"
        (path "/4a9928a4-e16b-4a74-977a-67cb4c5d4db6/c4df6d68-cfb5-470b-a3f5-21b9353b844b"
          (reference "#PWR0158") (unit 1)
        )
      )
    )
  )

  (symbol (lib_id "power:VDD") (at 55.88 39.37 0) (unit 1)
    (in_bom yes) (on_board yes) (dnp no) (fields_autoplaced)
    (uuid 9d816f95-0c36-4e30-99aa-1febceb54804)
    (property "Reference" "#PWR0285" (at 55.88 43.18 0)
      (effects (font (size 1.27 1.27)) hide)
    )
    (property "Value" "VDD" (at 55.88 35.7942 0)
      (effects (font (size 1.27 1.27)))
    )
    (property "Footprint" "" (at 55.88 39.37 0)
      (effects (font (size 1.27 1.27)) hide)
    )
    (property "Datasheet" "" (at 55.88 39.37 0)
      (effects (font (size 1.27 1.27)) hide)
    )
    (pin "1" (uuid 2d07686c-d572-4b09-a391-f86f3a677d18))
    (instances
      (project "bit"
        (path "/4a9928a4-e16b-4a74-977a-67cb4c5d4db6/c4df6d68-cfb5-470b-a3f5-21b9353b844b"
          (reference "#PWR0285") (unit 1)
        )
      )
    )
  )

  (symbol (lib_id "Device:C_Small") (at 55.88 41.91 0) (unit 1)
    (in_bom yes) (on_board yes) (dnp no) (fields_autoplaced)
    (uuid a384dc72-970b-422c-a4bb-72b5306b77d7)
    (property "Reference" "C9" (at 58.2041 41.0816 0)
      (effects (font (size 1.27 1.27)) (justify left))
    )
    (property "Value" "C_Small" (at 58.2041 43.6185 0)
      (effects (font (size 1.27 1.27)) (justify left))
    )
    (property "Footprint" "Capacitor_SMD:C_0805_2012Metric" (at 55.88 41.91 0)
      (effects (font (size 1.27 1.27)) hide)
    )
    (property "Datasheet" "~" (at 55.88 41.91 0)
      (effects (font (size 1.27 1.27)) hide)
    )
    (pin "1" (uuid 454b9916-f271-4819-930a-8d76af3d1c48))
    (pin "2" (uuid b179a1a1-62a3-4db5-91b2-8467d50d63a4))
    (instances
      (project "bit"
        (path "/4a9928a4-e16b-4a74-977a-67cb4c5d4db6/c4df6d68-cfb5-470b-a3f5-21b9353b844b"
          (reference "C9") (unit 1)
        )
      )
    )
  )

  (symbol (lib_id "Transistor_FET:2N7002") (at 58.42 73.66 0) (unit 1)
    (in_bom yes) (on_board yes) (dnp no) (fields_autoplaced)
    (uuid a62827e5-31aa-44a4-9c8d-14280068bdb9)
    (property "Reference" "Q93" (at 63.627 72.8253 0)
      (effects (font (size 1.27 1.27)) (justify left))
    )
    (property "Value" "2N7002" (at 63.627 75.3622 0)
      (effects (font (size 1.27 1.27)) (justify left))
    )
    (property "Footprint" "Package_TO_SOT_SMD:SOT-23" (at 63.5 75.565 0)
      (effects (font (size 1.27 1.27) italic) (justify left) hide)
    )
    (property "Datasheet" "https://www.onsemi.com/pub/Collateral/NDS7002A-D.PDF" (at 58.42 73.66 0)
      (effects (font (size 1.27 1.27)) (justify left) hide)
    )
    (pin "1" (uuid de022fcf-e8b9-47a9-9a01-05b264530f9f))
    (pin "2" (uuid 4f84f125-04c8-4716-9d2f-fe221885a8fa))
    (pin "3" (uuid e0bbb4f9-9df8-4717-9b51-88ca973c04d1))
    (instances
      (project "bit"
        (path "/4a9928a4-e16b-4a74-977a-67cb4c5d4db6/c4df6d68-cfb5-470b-a3f5-21b9353b844b"
          (reference "Q93") (unit 1)
        )
      )
    )
  )

  (symbol (lib_id "Device:R_US") (at 53.34 69.85 0) (unit 1)
    (in_bom yes) (on_board yes) (dnp no)
    (uuid bb1aefc8-a555-4be5-a6dc-011422fd9a21)
    (property "Reference" "R93" (at 52.07 68.58 0)
      (effects (font (size 1.27 1.27)) (justify right))
    )
    (property "Value" "9.1k" (at 47.8059 71.0864 0)
      (effects (font (size 1.27 1.27)) (justify left))
    )
    (property "Footprint" "Resistor_SMD:R_0805_2012Metric" (at 54.356 70.104 90)
      (effects (font (size 1.27 1.27)) hide)
    )
    (property "Datasheet" "~" (at 53.34 69.85 0)
      (effects (font (size 1.27 1.27)) hide)
    )
    (pin "1" (uuid 05861ba9-79f1-4d0a-9003-7865184feb0e))
    (pin "2" (uuid 3b86deef-3230-4f0a-982b-0c207abd2cd2))
    (instances
      (project "bit"
        (path "/4a9928a4-e16b-4a74-977a-67cb4c5d4db6/c4df6d68-cfb5-470b-a3f5-21b9353b844b"
          (reference "R93") (unit 1)
        )
      )
    )
  )

  (symbol (lib_id "power:VDD") (at 53.34 78.74 0) (unit 1)
    (in_bom yes) (on_board yes) (dnp no) (fields_autoplaced)
    (uuid c6806d63-22d3-4310-b031-ac926d167b92)
    (property "Reference" "#PWR0152" (at 53.34 82.55 0)
      (effects (font (size 1.27 1.27)) hide)
    )
    (property "Value" "VDD" (at 53.34 75.1642 0)
      (effects (font (size 1.27 1.27)))
    )
    (property "Footprint" "" (at 53.34 78.74 0)
      (effects (font (size 1.27 1.27)) hide)
    )
    (property "Datasheet" "" (at 53.34 78.74 0)
      (effects (font (size 1.27 1.27)) hide)
    )
    (pin "1" (uuid ceae0f43-27ff-405c-9cae-dcf9aba26c6d))
    (instances
      (project "bit"
        (path "/4a9928a4-e16b-4a74-977a-67cb4c5d4db6/c4df6d68-cfb5-470b-a3f5-21b9353b844b"
          (reference "#PWR0152") (unit 1)
        )
      )
    )
  )
)
