G04 #@! TF.GenerationSoftware,KiCad,Pcbnew,(6.0.9)*
G04 #@! TF.CreationDate,2023-01-18T21:27:22-05:00*
G04 #@! TF.ProjectId,combined,636f6d62-696e-4656-942e-6b696361645f,rev?*
G04 #@! TF.SameCoordinates,Original*
G04 #@! TF.FileFunction,Copper,L1,Top*
G04 #@! TF.FilePolarity,Positive*
%FSLAX46Y46*%
G04 Gerber Fmt 4.6, Leading zero omitted, Abs format (unit mm)*
G04 Created by KiCad (PCBNEW (6.0.9)) date 2023-01-18 21:27:22*
%MOMM*%
%LPD*%
G01*
G04 APERTURE LIST*
G04 Aperture macros list*
%AMRoundRect*
0 Rectangle with rounded corners*
0 $1 Rounding radius*
0 $2 $3 $4 $5 $6 $7 $8 $9 X,Y pos of 4 corners*
0 Add a 4 corners polygon primitive as box body*
4,1,4,$2,$3,$4,$5,$6,$7,$8,$9,$2,$3,0*
0 Add four circle primitives for the rounded corners*
1,1,$1+$1,$2,$3*
1,1,$1+$1,$4,$5*
1,1,$1+$1,$6,$7*
1,1,$1+$1,$8,$9*
0 Add four rect primitives between the rounded corners*
20,1,$1+$1,$2,$3,$4,$5,0*
20,1,$1+$1,$4,$5,$6,$7,0*
20,1,$1+$1,$6,$7,$8,$9,0*
20,1,$1+$1,$8,$9,$2,$3,0*%
G04 Aperture macros list end*
G04 #@! TA.AperFunction,SMDPad,CuDef*
%ADD10RoundRect,0.250000X-0.250000X-0.475000X0.250000X-0.475000X0.250000X0.475000X-0.250000X0.475000X0*%
G04 #@! TD*
G04 #@! TA.AperFunction,SMDPad,CuDef*
%ADD11RoundRect,0.250000X-0.450000X0.262500X-0.450000X-0.262500X0.450000X-0.262500X0.450000X0.262500X0*%
G04 #@! TD*
G04 #@! TA.AperFunction,SMDPad,CuDef*
%ADD12RoundRect,0.250000X0.450000X-0.262500X0.450000X0.262500X-0.450000X0.262500X-0.450000X-0.262500X0*%
G04 #@! TD*
G04 #@! TA.AperFunction,SMDPad,CuDef*
%ADD13RoundRect,0.250000X-0.262500X-0.450000X0.262500X-0.450000X0.262500X0.450000X-0.262500X0.450000X0*%
G04 #@! TD*
G04 #@! TA.AperFunction,SMDPad,CuDef*
%ADD14RoundRect,0.250000X0.625000X-0.312500X0.625000X0.312500X-0.625000X0.312500X-0.625000X-0.312500X0*%
G04 #@! TD*
G04 #@! TA.AperFunction,SMDPad,CuDef*
%ADD15RoundRect,0.150000X-0.587500X-0.150000X0.587500X-0.150000X0.587500X0.150000X-0.587500X0.150000X0*%
G04 #@! TD*
G04 #@! TA.AperFunction,SMDPad,CuDef*
%ADD16RoundRect,0.250000X0.262500X0.450000X-0.262500X0.450000X-0.262500X-0.450000X0.262500X-0.450000X0*%
G04 #@! TD*
G04 #@! TA.AperFunction,SMDPad,CuDef*
%ADD17RoundRect,0.250000X0.475000X-0.250000X0.475000X0.250000X-0.475000X0.250000X-0.475000X-0.250000X0*%
G04 #@! TD*
G04 #@! TA.AperFunction,SMDPad,CuDef*
%ADD18RoundRect,0.150000X0.150000X-0.587500X0.150000X0.587500X-0.150000X0.587500X-0.150000X-0.587500X0*%
G04 #@! TD*
G04 #@! TA.AperFunction,SMDPad,CuDef*
%ADD19RoundRect,0.150000X0.587500X0.150000X-0.587500X0.150000X-0.587500X-0.150000X0.587500X-0.150000X0*%
G04 #@! TD*
G04 #@! TA.AperFunction,SMDPad,CuDef*
%ADD20RoundRect,0.250000X0.312500X0.625000X-0.312500X0.625000X-0.312500X-0.625000X0.312500X-0.625000X0*%
G04 #@! TD*
G04 #@! TA.AperFunction,SMDPad,CuDef*
%ADD21RoundRect,0.250000X-0.625000X0.312500X-0.625000X-0.312500X0.625000X-0.312500X0.625000X0.312500X0*%
G04 #@! TD*
G04 #@! TA.AperFunction,SMDPad,CuDef*
%ADD22RoundRect,0.150000X-0.150000X0.587500X-0.150000X-0.587500X0.150000X-0.587500X0.150000X0.587500X0*%
G04 #@! TD*
G04 #@! TA.AperFunction,SMDPad,CuDef*
%ADD23RoundRect,0.250000X0.250000X0.475000X-0.250000X0.475000X-0.250000X-0.475000X0.250000X-0.475000X0*%
G04 #@! TD*
G04 #@! TA.AperFunction,SMDPad,CuDef*
%ADD24RoundRect,0.250000X0.650000X-0.325000X0.650000X0.325000X-0.650000X0.325000X-0.650000X-0.325000X0*%
G04 #@! TD*
G04 #@! TA.AperFunction,SMDPad,CuDef*
%ADD25RoundRect,0.250000X-0.475000X0.250000X-0.475000X-0.250000X0.475000X-0.250000X0.475000X0.250000X0*%
G04 #@! TD*
G04 #@! TA.AperFunction,SMDPad,CuDef*
%ADD26RoundRect,0.250000X-0.650000X0.325000X-0.650000X-0.325000X0.650000X-0.325000X0.650000X0.325000X0*%
G04 #@! TD*
G04 #@! TA.AperFunction,SMDPad,CuDef*
%ADD27RoundRect,0.250000X0.325000X0.650000X-0.325000X0.650000X-0.325000X-0.650000X0.325000X-0.650000X0*%
G04 #@! TD*
G04 #@! TA.AperFunction,SMDPad,CuDef*
%ADD28RoundRect,0.250000X-0.312500X-0.625000X0.312500X-0.625000X0.312500X0.625000X-0.312500X0.625000X0*%
G04 #@! TD*
G04 APERTURE END LIST*
D10*
X230058000Y-139446000D03*
X228158000Y-139446000D03*
D11*
X166734576Y-128045800D03*
X166734576Y-126220800D03*
D12*
X200262576Y-79992800D03*
X200262576Y-81817800D03*
X166734576Y-122664800D03*
X166734576Y-124489800D03*
D13*
X168915076Y-77571300D03*
X167090076Y-77571300D03*
D14*
X223630576Y-64407733D03*
X223630576Y-67332733D03*
D13*
X215145076Y-117735300D03*
X213320076Y-117735300D03*
D15*
X206788076Y-109353300D03*
X204913076Y-110303300D03*
X204913076Y-108403300D03*
X158528076Y-105797300D03*
X156653076Y-106747300D03*
X156653076Y-104847300D03*
D11*
X162670576Y-128045800D03*
X162670576Y-126220800D03*
D16*
X201128076Y-123323300D03*
X202953076Y-123323300D03*
D15*
X202724076Y-114941300D03*
X200849076Y-115891300D03*
X200849076Y-113991300D03*
D17*
X152510576Y-108403300D03*
X152510576Y-110303300D03*
D15*
X210344076Y-62871300D03*
X208469076Y-63821300D03*
X208469076Y-61921300D03*
X158528076Y-109353300D03*
X156653076Y-110303300D03*
X156653076Y-108403300D03*
D11*
X181974576Y-81817800D03*
X181974576Y-79992800D03*
D15*
X215424076Y-98685300D03*
X213549076Y-99635300D03*
X213549076Y-97735300D03*
X206280076Y-95207233D03*
X204405076Y-96157233D03*
X204405076Y-94257233D03*
D12*
X211438576Y-101328800D03*
X211438576Y-103153800D03*
D15*
X198152076Y-91573300D03*
X196277076Y-92523300D03*
X196277076Y-90623300D03*
D18*
X175114576Y-75617800D03*
X176064576Y-77492800D03*
X174164576Y-77492800D03*
D16*
X183856076Y-123323300D03*
X185681076Y-123323300D03*
D15*
X194088076Y-105797300D03*
X192213076Y-106747300D03*
X192213076Y-104847300D03*
D13*
X168915076Y-69443300D03*
X167090076Y-69443300D03*
D15*
X192056076Y-66427300D03*
X190181076Y-67377300D03*
X190181076Y-65477300D03*
X206280076Y-77349300D03*
X204405076Y-78299300D03*
X204405076Y-76399300D03*
D11*
X192134576Y-103153800D03*
X192134576Y-101328800D03*
D19*
X187641076Y-129673300D03*
X189516076Y-128723300D03*
X189516076Y-130623300D03*
D15*
X216440076Y-66427300D03*
X214565076Y-67377300D03*
X214565076Y-65477300D03*
D13*
X168915076Y-79603300D03*
X167090076Y-79603300D03*
D15*
X211360076Y-105797300D03*
X209485076Y-106747300D03*
X209485076Y-104847300D03*
X202216076Y-73539300D03*
X200341076Y-74489300D03*
X200341076Y-72589300D03*
D12*
X216518576Y-72628533D03*
X216518576Y-74453533D03*
D15*
X189516076Y-114941300D03*
X187641076Y-115891300D03*
X187641076Y-113991300D03*
X164624076Y-123577300D03*
X162749076Y-124527300D03*
X162749076Y-122627300D03*
X185960076Y-69983300D03*
X184085076Y-70933300D03*
X184085076Y-69033300D03*
X154464076Y-116465300D03*
X152589076Y-117415300D03*
X152589076Y-115515300D03*
X200184076Y-66427300D03*
X198309076Y-67377300D03*
X198309076Y-65477300D03*
D11*
X196198576Y-81817800D03*
X196198576Y-79992800D03*
D10*
X181146576Y-114179300D03*
X179246576Y-114179300D03*
D12*
X198230576Y-101328800D03*
X198230576Y-103153800D03*
D13*
X168915076Y-81635300D03*
X167090076Y-81635300D03*
X189237076Y-123323300D03*
X187412076Y-123323300D03*
D19*
X192213076Y-129673300D03*
X194088076Y-128723300D03*
X194088076Y-130623300D03*
D11*
X202294576Y-81817800D03*
X202294576Y-79992800D03*
X158606576Y-99597800D03*
X158606576Y-97772800D03*
D15*
X211360076Y-98685300D03*
X209485076Y-99635300D03*
X209485076Y-97735300D03*
X202724076Y-126117300D03*
X200849076Y-127067300D03*
X200849076Y-125167300D03*
X154464076Y-123577300D03*
X152589076Y-124527300D03*
X152589076Y-122627300D03*
X154464076Y-120021300D03*
X152589076Y-120971300D03*
X152589076Y-119071300D03*
D17*
X200770576Y-108403300D03*
X200770576Y-110303300D03*
D12*
X212454576Y-72626800D03*
X212454576Y-74451800D03*
D11*
X212454576Y-60227800D03*
X212454576Y-58402800D03*
D15*
X166656076Y-116465300D03*
X164781076Y-117415300D03*
X164781076Y-115515300D03*
D12*
X214486576Y-90660800D03*
X214486576Y-92485800D03*
D15*
X214408076Y-69983300D03*
X212533076Y-70933300D03*
X212533076Y-69033300D03*
D13*
X168915076Y-85699300D03*
X167090076Y-85699300D03*
D12*
X190102576Y-61958800D03*
X190102576Y-63783800D03*
D15*
X158528076Y-120021300D03*
X156653076Y-120971300D03*
X156653076Y-119071300D03*
D13*
X168915076Y-65379300D03*
X167090076Y-65379300D03*
D15*
X214408076Y-88017300D03*
X212533076Y-88967300D03*
X212533076Y-87067300D03*
D12*
X210422576Y-83548800D03*
X210422576Y-85373800D03*
D16*
X174202076Y-83667300D03*
X176027076Y-83667300D03*
D12*
X194166576Y-90660800D03*
X194166576Y-92485800D03*
D15*
X170720076Y-116465300D03*
X168845076Y-117415300D03*
X168845076Y-115515300D03*
D16*
X201128076Y-117735300D03*
X202953076Y-117735300D03*
D15*
X181388076Y-105797300D03*
X179513076Y-106747300D03*
X179513076Y-104847300D03*
D17*
X178816000Y-60010000D03*
X178816000Y-61910000D03*
D15*
X210344076Y-80905300D03*
X208469076Y-81855300D03*
X208469076Y-79955300D03*
D12*
X170798576Y-111996800D03*
X170798576Y-113821800D03*
D11*
X184006576Y-63783800D03*
X184006576Y-61958800D03*
D12*
X210422576Y-65514800D03*
X210422576Y-67339800D03*
D11*
X206358576Y-70895800D03*
X206358576Y-69070800D03*
D12*
X192134576Y-87104800D03*
X192134576Y-88929800D03*
D15*
X211360076Y-114941300D03*
X209485076Y-115891300D03*
X209485076Y-113991300D03*
X154464076Y-105797300D03*
X152589076Y-106747300D03*
X152589076Y-104847300D03*
D11*
X156574576Y-113821800D03*
X156574576Y-111996800D03*
D19*
X156653076Y-130689300D03*
X158528076Y-129739300D03*
X158528076Y-131639300D03*
D15*
X196120076Y-59315300D03*
X194245076Y-60265300D03*
X194245076Y-58365300D03*
X166656076Y-112909300D03*
X164781076Y-113859300D03*
X164781076Y-111959300D03*
D12*
X172830576Y-133332800D03*
X172830576Y-135157800D03*
X194166576Y-69070800D03*
X194166576Y-70895800D03*
X194166576Y-108440800D03*
X194166576Y-110265800D03*
D16*
X209764076Y-123323300D03*
X211589076Y-123323300D03*
X192492076Y-123323300D03*
X194317076Y-123323300D03*
D11*
X214486576Y-78261800D03*
X214486576Y-76436800D03*
D15*
X185452076Y-120529300D03*
X183577076Y-121479300D03*
X183577076Y-119579300D03*
D11*
X166734576Y-99597800D03*
X166734576Y-97772800D03*
X181466576Y-117885800D03*
X181466576Y-116060800D03*
D20*
X224708076Y-107399233D03*
X227633076Y-107399233D03*
D15*
X185452076Y-126117300D03*
X183577076Y-127067300D03*
X183577076Y-125167300D03*
D13*
X206509076Y-123323300D03*
X204684076Y-123323300D03*
D15*
X210344076Y-59315300D03*
X208469076Y-60265300D03*
X208469076Y-58365300D03*
D12*
X206866576Y-101328800D03*
X206866576Y-103153800D03*
D21*
X223630576Y-78635733D03*
X223630576Y-75710733D03*
D12*
X215502576Y-101328800D03*
X215502576Y-103153800D03*
D15*
X198152076Y-120529300D03*
X196277076Y-121479300D03*
X196277076Y-119579300D03*
D12*
X212454576Y-90660800D03*
X212454576Y-92485800D03*
D11*
X156574576Y-99597800D03*
X156574576Y-97772800D03*
D15*
X198152076Y-73539300D03*
X196277076Y-74489300D03*
X196277076Y-72589300D03*
X189516076Y-98685300D03*
X187641076Y-99635300D03*
X187641076Y-97735300D03*
D16*
X209764076Y-117735300D03*
X211589076Y-117735300D03*
D19*
X196277076Y-69983300D03*
X198152076Y-69033300D03*
X198152076Y-70933300D03*
D15*
X202724076Y-98685300D03*
X200849076Y-99635300D03*
X200849076Y-97735300D03*
X204248076Y-66427300D03*
X202373076Y-67377300D03*
X202373076Y-65477300D03*
D19*
X190181076Y-77349300D03*
X192056076Y-76399300D03*
X192056076Y-78299300D03*
D13*
X198127076Y-132467300D03*
X196302076Y-132467300D03*
D15*
X198152076Y-105797300D03*
X196277076Y-106747300D03*
X196277076Y-104847300D03*
X218472076Y-69983300D03*
X216597076Y-70933300D03*
X216597076Y-69033300D03*
X194088076Y-126117300D03*
X192213076Y-127067300D03*
X192213076Y-125167300D03*
X214408076Y-62871300D03*
X212533076Y-63821300D03*
X212533076Y-61921300D03*
D13*
X215145076Y-112147300D03*
X213320076Y-112147300D03*
D12*
X212454576Y-83548800D03*
X212454576Y-85373800D03*
X181974576Y-69070800D03*
X181974576Y-70895800D03*
D15*
X206280076Y-80905300D03*
X204405076Y-81855300D03*
X204405076Y-79955300D03*
D16*
X209764076Y-112147300D03*
X211589076Y-112147300D03*
D12*
X156574576Y-122664800D03*
X156574576Y-124489800D03*
D15*
X206280076Y-91573300D03*
X204405076Y-92523300D03*
X204405076Y-90623300D03*
D11*
X154542576Y-128045800D03*
X154542576Y-126220800D03*
D12*
X170798576Y-133332800D03*
X170798576Y-135157800D03*
D15*
X208312076Y-66427300D03*
X206437076Y-67377300D03*
X206437076Y-65477300D03*
D12*
X160638576Y-122664800D03*
X160638576Y-124489800D03*
X154542576Y-108440800D03*
X154542576Y-110265800D03*
D18*
X175114576Y-79681800D03*
X176064576Y-81556800D03*
X174164576Y-81556800D03*
D15*
X181388076Y-102241300D03*
X179513076Y-103191300D03*
X179513076Y-101291300D03*
X200184076Y-84461300D03*
X198309076Y-85411300D03*
X198309076Y-83511300D03*
D18*
X175114576Y-71553800D03*
X176064576Y-73428800D03*
X174164576Y-73428800D03*
D15*
X170720076Y-123577300D03*
X168845076Y-124527300D03*
X168845076Y-122627300D03*
D11*
X152510576Y-128045800D03*
X152510576Y-126220800D03*
X154542576Y-113821800D03*
X154542576Y-111996800D03*
X179434576Y-117885800D03*
X179434576Y-116060800D03*
D15*
X210344076Y-88017300D03*
X208469076Y-88967300D03*
X208469076Y-87067300D03*
D11*
X218550576Y-85373800D03*
X218550576Y-83548800D03*
D15*
X202724076Y-131705300D03*
X200849076Y-132655300D03*
X200849076Y-130755300D03*
D11*
X162670576Y-106709800D03*
X162670576Y-104884800D03*
X156574576Y-128045800D03*
X156574576Y-126220800D03*
D15*
X204248076Y-84461300D03*
X202373076Y-85411300D03*
X202373076Y-83511300D03*
D12*
X190102576Y-79992800D03*
X190102576Y-81817800D03*
D16*
X183856076Y-117735300D03*
X185681076Y-117735300D03*
D12*
X200262576Y-61958800D03*
X200262576Y-63783800D03*
D15*
X196120076Y-77349300D03*
X194245076Y-78299300D03*
X194245076Y-76399300D03*
X215424076Y-126117300D03*
X213549076Y-127067300D03*
X213549076Y-125167300D03*
X181388076Y-120529300D03*
X179513076Y-121479300D03*
X179513076Y-119579300D03*
X166656076Y-130689300D03*
X164781076Y-131639300D03*
X164781076Y-129739300D03*
D12*
X202294576Y-58402800D03*
X202294576Y-60227800D03*
D15*
X211360076Y-131705300D03*
X209485076Y-132655300D03*
X209485076Y-130755300D03*
D12*
X194166576Y-61958800D03*
X194166576Y-63783800D03*
D15*
X174784076Y-127135033D03*
X172909076Y-128085033D03*
X172909076Y-126185033D03*
X208312076Y-84461300D03*
X206437076Y-85411300D03*
X206437076Y-83511300D03*
X190024076Y-88017300D03*
X188149076Y-88967300D03*
X188149076Y-87067300D03*
D16*
X183856076Y-112147300D03*
X185681076Y-112147300D03*
D13*
X215145076Y-123323300D03*
X213320076Y-123323300D03*
D12*
X189594576Y-101328800D03*
X189594576Y-103153800D03*
D15*
X170720076Y-120021300D03*
X168845076Y-120971300D03*
X168845076Y-119071300D03*
X166656076Y-102241300D03*
X164781076Y-103191300D03*
X164781076Y-101291300D03*
X198152076Y-114941300D03*
X196277076Y-115891300D03*
X196277076Y-113991300D03*
D11*
X214486576Y-60227800D03*
X214486576Y-58402800D03*
D12*
X194166576Y-87104800D03*
X194166576Y-88929800D03*
X185530576Y-101328800D03*
X185530576Y-103153800D03*
D15*
X154464076Y-102241300D03*
X152589076Y-103191300D03*
X152589076Y-101291300D03*
D19*
X186117076Y-77349300D03*
X187992076Y-76399300D03*
X187992076Y-78299300D03*
D12*
X202294576Y-76436800D03*
X202294576Y-78261800D03*
X214486576Y-72626800D03*
X214486576Y-74451800D03*
D15*
X198152076Y-109353300D03*
X196277076Y-110303300D03*
X196277076Y-108403300D03*
D12*
X175370576Y-108440800D03*
X175370576Y-110265800D03*
D13*
X197873076Y-112147300D03*
X196048076Y-112147300D03*
D11*
X218550576Y-67339800D03*
X218550576Y-65514800D03*
D10*
X168954576Y-63379300D03*
X167054576Y-63379300D03*
D22*
X171558576Y-73428800D03*
X170608576Y-71553800D03*
X172508576Y-71553800D03*
D15*
X198152076Y-126117300D03*
X196277076Y-127067300D03*
X196277076Y-125167300D03*
D13*
X168915076Y-67411300D03*
X167090076Y-67411300D03*
D23*
X181786576Y-110115300D03*
X183686576Y-110115300D03*
D15*
X211360076Y-120529300D03*
X209485076Y-121479300D03*
X209485076Y-119579300D03*
X185452076Y-98685300D03*
X183577076Y-99635300D03*
X183577076Y-97735300D03*
D11*
X206358576Y-88929800D03*
X206358576Y-87104800D03*
D15*
X185452076Y-105797300D03*
X183577076Y-106747300D03*
X183577076Y-104847300D03*
D19*
X194245076Y-66427300D03*
X196120076Y-65477300D03*
X196120076Y-67377300D03*
D15*
X215424076Y-105797300D03*
X213549076Y-106747300D03*
X213549076Y-104847300D03*
D19*
X194245076Y-84461300D03*
X196120076Y-83511300D03*
X196120076Y-85411300D03*
D15*
X206280076Y-59315300D03*
X204405076Y-60265300D03*
X204405076Y-58365300D03*
D12*
X168766576Y-133332800D03*
X168766576Y-135157800D03*
D15*
X189516076Y-120529300D03*
X187641076Y-121479300D03*
X187641076Y-119579300D03*
X183928076Y-66427300D03*
X182053076Y-67377300D03*
X182053076Y-65477300D03*
D11*
X198230576Y-63783800D03*
X198230576Y-61958800D03*
D15*
X194088076Y-120529300D03*
X192213076Y-121479300D03*
X192213076Y-119579300D03*
X185960076Y-88017300D03*
X184085076Y-88967300D03*
X184085076Y-87067300D03*
X185452076Y-129673300D03*
X183577076Y-130623300D03*
X183577076Y-128723300D03*
D19*
X190181076Y-59315300D03*
X192056076Y-58365300D03*
X192056076Y-60265300D03*
D15*
X174784076Y-130689300D03*
X172909076Y-131639300D03*
X172909076Y-129739300D03*
X198152076Y-98685300D03*
X196277076Y-99635300D03*
X196277076Y-97735300D03*
X211360076Y-126117300D03*
X209485076Y-127067300D03*
X209485076Y-125167300D03*
D17*
X192134576Y-108403300D03*
X192134576Y-110303300D03*
X216518576Y-58365300D03*
X216518576Y-60265300D03*
D15*
X194088076Y-98685300D03*
X192213076Y-99635300D03*
X192213076Y-97735300D03*
D13*
X189237076Y-117735300D03*
X187412076Y-117735300D03*
D15*
X181388076Y-129673300D03*
X179513076Y-130623300D03*
X179513076Y-128723300D03*
D11*
X202294576Y-70895800D03*
X202294576Y-69070800D03*
X160638576Y-106709800D03*
X160638576Y-104884800D03*
D16*
X187666076Y-132467300D03*
X189491076Y-132467300D03*
D13*
X168915076Y-75539300D03*
X167090076Y-75539300D03*
D11*
X164702576Y-128045800D03*
X164702576Y-126220800D03*
X152510576Y-113821800D03*
X152510576Y-111996800D03*
D19*
X168845076Y-130689300D03*
X170720076Y-129739300D03*
X170720076Y-131639300D03*
D15*
X206788076Y-105797300D03*
X204913076Y-106747300D03*
X204913076Y-104847300D03*
D13*
X206509076Y-112147300D03*
X204684076Y-112147300D03*
D15*
X206788076Y-98685300D03*
X204913076Y-99635300D03*
X204913076Y-97735300D03*
D12*
X162670576Y-111996800D03*
X162670576Y-113821800D03*
D19*
X164781076Y-134245300D03*
X166656076Y-133295300D03*
X166656076Y-135195300D03*
D15*
X166656076Y-105797300D03*
X164781076Y-106747300D03*
X164781076Y-104847300D03*
D13*
X185427076Y-132467300D03*
X183602076Y-132467300D03*
D15*
X206788076Y-114941300D03*
X204913076Y-115891300D03*
X204913076Y-113991300D03*
X220504076Y-73515633D03*
X218629076Y-74465633D03*
X218629076Y-72565633D03*
X206788076Y-120529300D03*
X204913076Y-121479300D03*
X204913076Y-119579300D03*
D11*
X164702576Y-99597800D03*
X164702576Y-97772800D03*
D15*
X206280076Y-62871300D03*
X204405076Y-63821300D03*
X204405076Y-61921300D03*
D11*
X186038576Y-81817800D03*
X186038576Y-79992800D03*
D15*
X177324076Y-116973300D03*
X175449076Y-117923300D03*
X175449076Y-116023300D03*
X170720076Y-105797300D03*
X168845076Y-106747300D03*
X168845076Y-104847300D03*
D11*
X158606576Y-128045800D03*
X158606576Y-126220800D03*
X204326576Y-88929800D03*
X204326576Y-87104800D03*
D15*
X177324076Y-120529300D03*
X175449076Y-121479300D03*
X175449076Y-119579300D03*
D12*
X192134576Y-79992800D03*
X192134576Y-81817800D03*
D18*
X175114576Y-67489800D03*
X176064576Y-69364800D03*
X174164576Y-69364800D03*
D15*
X170720076Y-109353300D03*
X168845076Y-110303300D03*
X168845076Y-108403300D03*
D12*
X158606576Y-122664800D03*
X158606576Y-124489800D03*
X212454576Y-65514800D03*
X212454576Y-67339800D03*
D11*
X196198576Y-103153800D03*
X196198576Y-101328800D03*
X198230576Y-81817800D03*
X198230576Y-79992800D03*
D19*
X186117076Y-59315300D03*
X187992076Y-58365300D03*
X187992076Y-60265300D03*
D12*
X177402576Y-108440800D03*
X177402576Y-110265800D03*
D13*
X215145076Y-128911300D03*
X213320076Y-128911300D03*
D18*
X168002576Y-91873800D03*
X168952576Y-93748800D03*
X167052576Y-93748800D03*
D15*
X166656076Y-109353300D03*
X164781076Y-110303300D03*
X164781076Y-108403300D03*
D17*
X216518576Y-76399300D03*
X216518576Y-78299300D03*
D15*
X192056076Y-84461300D03*
X190181076Y-85411300D03*
X190181076Y-83511300D03*
X200184076Y-59315300D03*
X198309076Y-60265300D03*
X198309076Y-58365300D03*
D18*
X175114576Y-63425800D03*
X176064576Y-65300800D03*
X174164576Y-65300800D03*
D11*
X168766576Y-113821800D03*
X168766576Y-111996800D03*
D15*
X215424076Y-114941300D03*
X213549076Y-115891300D03*
X213549076Y-113991300D03*
D11*
X187562576Y-103153800D03*
X187562576Y-101328800D03*
X154542576Y-99597800D03*
X154542576Y-97772800D03*
D20*
X224708076Y-87587233D03*
X227633076Y-87587233D03*
D13*
X168915076Y-83667300D03*
X167090076Y-83667300D03*
D11*
X184006576Y-81817800D03*
X184006576Y-79992800D03*
D16*
X201128076Y-112147300D03*
X202953076Y-112147300D03*
D11*
X204834576Y-103153800D03*
X204834576Y-101328800D03*
X168766576Y-99597800D03*
X168766576Y-97772800D03*
X181974576Y-63783800D03*
X181974576Y-61958800D03*
X200770576Y-103153800D03*
X200770576Y-101328800D03*
D15*
X206280076Y-73539300D03*
X204405076Y-74489300D03*
X204405076Y-72589300D03*
D24*
X178926576Y-86620233D03*
X178926576Y-89570233D03*
D16*
X209764076Y-128911300D03*
X211589076Y-128911300D03*
D12*
X192134576Y-69070800D03*
X192134576Y-70895800D03*
D11*
X172830576Y-124491533D03*
X172830576Y-122666533D03*
D15*
X166656076Y-120021300D03*
X164781076Y-120971300D03*
X164781076Y-119071300D03*
D11*
X213470576Y-103153800D03*
X213470576Y-101328800D03*
D13*
X197873076Y-123323300D03*
X196048076Y-123323300D03*
D18*
X171558576Y-91873800D03*
X172508576Y-93748800D03*
X170608576Y-93748800D03*
D12*
X162670576Y-119108800D03*
X162670576Y-120933800D03*
D20*
X224708076Y-100795233D03*
X227633076Y-100795233D03*
D15*
X210344076Y-73539300D03*
X208469076Y-74489300D03*
X208469076Y-72589300D03*
D12*
X179434576Y-108440800D03*
X179434576Y-110265800D03*
D15*
X162592076Y-109353300D03*
X160717076Y-110303300D03*
X160717076Y-108403300D03*
D19*
X152589076Y-130689300D03*
X154464076Y-129739300D03*
X154464076Y-131639300D03*
D15*
X158528076Y-102241300D03*
X156653076Y-103191300D03*
X156653076Y-101291300D03*
X190024076Y-69983300D03*
X188149076Y-70933300D03*
X188149076Y-69033300D03*
D18*
X171558576Y-83745800D03*
X172508576Y-85620800D03*
X170608576Y-85620800D03*
D17*
X209406576Y-108403300D03*
X209406576Y-110303300D03*
D11*
X177402576Y-99597800D03*
X177402576Y-97772800D03*
D15*
X210344076Y-69983300D03*
X208469076Y-70933300D03*
X208469076Y-69033300D03*
D11*
X175370576Y-99597800D03*
X175370576Y-97772800D03*
D15*
X215424076Y-120529300D03*
X213549076Y-121479300D03*
X213549076Y-119579300D03*
D19*
X160717076Y-130689300D03*
X162592076Y-129739300D03*
X162592076Y-131639300D03*
D11*
X196198576Y-63783800D03*
X196198576Y-61958800D03*
D15*
X198152076Y-129673300D03*
X196277076Y-130623300D03*
X196277076Y-128723300D03*
D20*
X224708076Y-94191233D03*
X227633076Y-94191233D03*
D15*
X162592076Y-134245300D03*
X160717076Y-135195300D03*
X160717076Y-133295300D03*
D11*
X202294576Y-63783800D03*
X202294576Y-61958800D03*
D15*
X206788076Y-126117300D03*
X204913076Y-127067300D03*
X204913076Y-125167300D03*
D11*
X200262576Y-70895800D03*
X200262576Y-69070800D03*
D19*
X196277076Y-88017300D03*
X198152076Y-87067300D03*
X198152076Y-88967300D03*
D11*
X212454576Y-78261800D03*
X212454576Y-76436800D03*
D13*
X206509076Y-128911300D03*
X204684076Y-128911300D03*
D15*
X177324076Y-105797300D03*
X175449076Y-106747300D03*
X175449076Y-104847300D03*
D12*
X181974576Y-87104800D03*
X181974576Y-88929800D03*
X202802576Y-101328800D03*
X202802576Y-103153800D03*
D11*
X186038576Y-63783800D03*
X186038576Y-61958800D03*
D22*
X171558576Y-77492800D03*
X170608576Y-75617800D03*
X172508576Y-75617800D03*
D15*
X185452076Y-114941300D03*
X183577076Y-115891300D03*
X183577076Y-113991300D03*
X200184076Y-77349300D03*
X198309076Y-78299300D03*
X198309076Y-76399300D03*
D11*
X209406576Y-103153800D03*
X209406576Y-101328800D03*
D15*
X206788076Y-131705300D03*
X204913076Y-132655300D03*
X204913076Y-130755300D03*
X189516076Y-105797300D03*
X187641076Y-106747300D03*
X187641076Y-104847300D03*
D18*
X171558576Y-87809800D03*
X172508576Y-89684800D03*
X170608576Y-89684800D03*
D15*
X202724076Y-105797300D03*
X200849076Y-106747300D03*
X200849076Y-104847300D03*
X187992076Y-66427300D03*
X186117076Y-67377300D03*
X186117076Y-65477300D03*
D12*
X185530576Y-108440800D03*
X185530576Y-110265800D03*
D11*
X152510576Y-99597800D03*
X152510576Y-97772800D03*
D12*
X211438576Y-108440800D03*
X211438576Y-110265800D03*
D15*
X170720076Y-102241300D03*
X168845076Y-103191300D03*
X168845076Y-101291300D03*
D18*
X168002576Y-87809800D03*
X168952576Y-89684800D03*
X167052576Y-89684800D03*
D13*
X194063076Y-132467300D03*
X192238076Y-132467300D03*
D15*
X216440076Y-84461300D03*
X214565076Y-85411300D03*
X214565076Y-83511300D03*
D12*
X194166576Y-79992800D03*
X194166576Y-81817800D03*
D15*
X177324076Y-102241300D03*
X175449076Y-103191300D03*
X175449076Y-101291300D03*
D22*
X171558576Y-81556800D03*
X170608576Y-79681800D03*
X172508576Y-79681800D03*
D16*
X201128076Y-128911300D03*
X202953076Y-128911300D03*
D15*
X170720076Y-127133300D03*
X168845076Y-128083300D03*
X168845076Y-126183300D03*
D12*
X202802576Y-108440800D03*
X202802576Y-110265800D03*
D15*
X218472076Y-88017300D03*
X216597076Y-88967300D03*
X216597076Y-87067300D03*
X187992076Y-84461300D03*
X186117076Y-85411300D03*
X186117076Y-83511300D03*
D11*
X160638576Y-117377800D03*
X160638576Y-115552800D03*
D15*
X214408076Y-80905300D03*
X212533076Y-81855300D03*
X212533076Y-79955300D03*
D16*
X174202076Y-85699300D03*
X176027076Y-85699300D03*
D11*
X183498576Y-103153800D03*
X183498576Y-101328800D03*
D12*
X194166576Y-101328800D03*
X194166576Y-103153800D03*
D11*
X200262576Y-88929800D03*
X200262576Y-87104800D03*
D23*
X182040576Y-60077300D03*
X183940576Y-60077300D03*
D15*
X215424076Y-109353300D03*
X213549076Y-110303300D03*
X213549076Y-108403300D03*
D18*
X175114576Y-91873800D03*
X176064576Y-93748800D03*
X174164576Y-93748800D03*
D12*
X194166576Y-72626800D03*
X194166576Y-74451800D03*
D15*
X158528076Y-116465300D03*
X156653076Y-117415300D03*
X156653076Y-115515300D03*
D11*
X202294576Y-88929800D03*
X202294576Y-87104800D03*
D12*
X192134576Y-61958800D03*
X192134576Y-63783800D03*
D15*
X202216076Y-91573300D03*
X200341076Y-92523300D03*
X200341076Y-90623300D03*
D16*
X192492076Y-117735300D03*
X194317076Y-117735300D03*
D15*
X210344076Y-91573300D03*
X208469076Y-92523300D03*
X208469076Y-90623300D03*
X189516076Y-126117300D03*
X187641076Y-127067300D03*
X187641076Y-125167300D03*
X183928076Y-84461300D03*
X182053076Y-85411300D03*
X182053076Y-83511300D03*
X154464076Y-134245300D03*
X152589076Y-135195300D03*
X152589076Y-133295300D03*
D23*
X182040576Y-78111300D03*
X183940576Y-78111300D03*
D11*
X204326576Y-70895800D03*
X204326576Y-69070800D03*
D13*
X197873076Y-117735300D03*
X196048076Y-117735300D03*
D15*
X215424076Y-131705300D03*
X213549076Y-132655300D03*
X213549076Y-130755300D03*
X158528076Y-134245300D03*
X156653076Y-135195300D03*
X156653076Y-133295300D03*
D13*
X202445076Y-94445233D03*
X200620076Y-94445233D03*
D11*
X170798576Y-99597800D03*
X170798576Y-97772800D03*
D13*
X189237076Y-112147300D03*
X187412076Y-112147300D03*
D19*
X179513076Y-98685300D03*
X181388076Y-97735300D03*
X181388076Y-99635300D03*
D16*
X192492076Y-112147300D03*
X194317076Y-112147300D03*
D13*
X206509076Y-117735300D03*
X204684076Y-117735300D03*
D15*
X189516076Y-109353300D03*
X187641076Y-110303300D03*
X187641076Y-108403300D03*
X210344076Y-77349300D03*
X208469076Y-78299300D03*
X208469076Y-76399300D03*
D22*
X171558576Y-69364800D03*
X170608576Y-67489800D03*
X172508576Y-67489800D03*
D15*
X194088076Y-114941300D03*
X192213076Y-115891300D03*
X192213076Y-113991300D03*
D11*
X162670576Y-117377800D03*
X162670576Y-115552800D03*
D15*
X202724076Y-120529300D03*
X200849076Y-121479300D03*
X200849076Y-119579300D03*
D11*
X160638576Y-128045800D03*
X160638576Y-126220800D03*
D25*
X45839196Y-139342200D03*
X45839196Y-141242200D03*
D23*
X145976196Y-93683200D03*
X144076196Y-93683200D03*
X51488196Y-74125200D03*
X49588196Y-74125200D03*
D11*
X70962627Y-82010500D03*
X70962627Y-83835500D03*
D12*
X75280627Y-55133500D03*
X75280627Y-53308500D03*
D13*
X108150127Y-150487000D03*
X109975127Y-150487000D03*
D26*
X40767000Y-123982200D03*
X40767000Y-126932200D03*
D18*
X115224627Y-142280500D03*
X117124627Y-142280500D03*
X116174627Y-140405500D03*
D22*
X95282627Y-46171500D03*
X93382627Y-46171500D03*
X94332627Y-48046500D03*
D18*
X55280627Y-128056500D03*
X57180627Y-128056500D03*
X56230627Y-126181500D03*
D15*
X77391127Y-49715000D03*
X77391127Y-51615000D03*
X79266127Y-50665000D03*
D16*
X142390500Y-138557000D03*
X140565500Y-138557000D03*
X142367127Y-76327000D03*
X140542127Y-76327000D03*
D20*
X59882500Y-116201200D03*
X56957500Y-116201200D03*
D12*
X64866627Y-83835500D03*
X64866627Y-82010500D03*
D11*
X38450627Y-103346500D03*
X38450627Y-105171500D03*
D12*
X75280627Y-76469500D03*
X75280627Y-74644500D03*
D16*
X145923127Y-54737000D03*
X144098127Y-54737000D03*
D11*
X50642627Y-99790500D03*
X50642627Y-101615500D03*
D15*
X65199127Y-42603000D03*
X65199127Y-44503000D03*
X67074127Y-43553000D03*
D12*
X69184627Y-51577500D03*
X69184627Y-49752500D03*
X66913127Y-94503500D03*
X66913127Y-92678500D03*
D15*
X73327127Y-60383000D03*
X73327127Y-62283000D03*
X75202127Y-61333000D03*
D22*
X120174627Y-42107500D03*
X118274627Y-42107500D03*
X119224627Y-43982500D03*
D15*
X71041127Y-106865000D03*
X71041127Y-108765000D03*
X72916127Y-107815000D03*
D11*
X73248627Y-39084500D03*
X73248627Y-40909500D03*
D16*
X142367127Y-63627000D03*
X140542127Y-63627000D03*
D18*
X79664627Y-142280500D03*
X81564627Y-142280500D03*
X80614627Y-140405500D03*
D15*
X65199127Y-63939000D03*
X65199127Y-65839000D03*
X67074127Y-64889000D03*
D20*
X59882500Y-113661200D03*
X56957500Y-113661200D03*
D15*
X71041127Y-89085000D03*
X71041127Y-90985000D03*
X72916127Y-90035000D03*
X60881127Y-99753000D03*
X60881127Y-101653000D03*
X62756127Y-100703000D03*
X56831627Y-92641000D03*
X56831627Y-94541000D03*
X58706627Y-93591000D03*
D11*
X73248627Y-46196500D03*
X73248627Y-48021500D03*
D16*
X142390500Y-110617000D03*
X140565500Y-110617000D03*
D12*
X38450627Y-94503500D03*
X38450627Y-92678500D03*
D15*
X52753127Y-106865000D03*
X52753127Y-108765000D03*
X54628127Y-107815000D03*
D11*
X57500627Y-140176500D03*
X57500627Y-142001500D03*
X47117000Y-116670700D03*
X47117000Y-118495700D03*
D22*
X109506627Y-42107500D03*
X107606627Y-42107500D03*
X108556627Y-43982500D03*
D11*
X38450627Y-96234500D03*
X38450627Y-98059500D03*
D24*
X48387000Y-126932200D03*
X48387000Y-123982200D03*
D19*
X67993500Y-117659200D03*
X67993500Y-115759200D03*
X66118500Y-116709200D03*
D11*
X43053000Y-116670700D03*
X43053000Y-118495700D03*
D18*
X97444627Y-154472500D03*
X99344627Y-154472500D03*
X98394627Y-152597500D03*
X118780627Y-146344500D03*
X120680627Y-146344500D03*
X119730627Y-144469500D03*
X90332627Y-150408500D03*
X92232627Y-150408500D03*
X91282627Y-148533500D03*
D16*
X142367127Y-53467000D03*
X140542127Y-53467000D03*
X105913127Y-52189000D03*
X104088127Y-52189000D03*
D13*
X111200127Y-39997000D03*
X113025127Y-39997000D03*
D18*
X111668627Y-146344500D03*
X113568627Y-146344500D03*
X112618627Y-144469500D03*
D21*
X39243000Y-115612700D03*
X39243000Y-118537700D03*
D15*
X75105127Y-96197000D03*
X75105127Y-98097000D03*
X76980127Y-97147000D03*
D13*
X66143500Y-120011200D03*
X67968500Y-120011200D03*
D22*
X106456627Y-148533500D03*
X104556627Y-148533500D03*
X105506627Y-150408500D03*
D16*
X145923127Y-77597000D03*
X144098127Y-77597000D03*
D13*
X61414127Y-63873000D03*
X63239127Y-63873000D03*
D15*
X81455127Y-46159000D03*
X81455127Y-48059000D03*
X83330127Y-47109000D03*
X44625127Y-78417000D03*
X44625127Y-80317000D03*
X46500127Y-79367000D03*
X65199127Y-71051000D03*
X65199127Y-72951000D03*
X67074127Y-72001000D03*
X69263127Y-71051000D03*
X69263127Y-72951000D03*
X71138127Y-72001000D03*
D11*
X75788627Y-125952500D03*
X75788627Y-127777500D03*
D27*
X59895000Y-111121200D03*
X56945000Y-111121200D03*
D22*
X121696627Y-152597500D03*
X119796627Y-152597500D03*
X120746627Y-154472500D03*
D11*
X66898627Y-82010500D03*
X66898627Y-83835500D03*
X68930627Y-99790500D03*
X68930627Y-101615500D03*
X52674627Y-103346500D03*
X52674627Y-105171500D03*
D15*
X50721127Y-78417000D03*
X50721127Y-80317000D03*
X52596127Y-79367000D03*
D12*
X77058627Y-94503500D03*
X77058627Y-92678500D03*
D13*
X61414127Y-76065000D03*
X63239127Y-76065000D03*
X61414127Y-67937000D03*
X63239127Y-67937000D03*
D15*
X65199127Y-53271000D03*
X65199127Y-55171000D03*
X67074127Y-54221000D03*
D16*
X142390500Y-128397000D03*
X140565500Y-128397000D03*
D12*
X64866627Y-94503500D03*
X64866627Y-92678500D03*
D15*
X81455127Y-49715000D03*
X81455127Y-51615000D03*
X83330127Y-50665000D03*
X65199127Y-49715000D03*
X65199127Y-51615000D03*
X67074127Y-50665000D03*
D11*
X69692627Y-140176500D03*
X69692627Y-142001500D03*
D13*
X93926127Y-146423000D03*
X95751127Y-146423000D03*
D19*
X66820127Y-105209000D03*
X66820127Y-103309000D03*
X64945127Y-104259000D03*
D18*
X108112627Y-146344500D03*
X110012627Y-146344500D03*
X109062627Y-144469500D03*
D13*
X86308127Y-44061000D03*
X88133127Y-44061000D03*
D16*
X145923127Y-83947000D03*
X144098127Y-83947000D03*
X123691127Y-52189000D03*
X121866127Y-52189000D03*
D12*
X69184627Y-44465500D03*
X69184627Y-42640500D03*
D18*
X115224627Y-138216500D03*
X117124627Y-138216500D03*
X116174627Y-136341500D03*
D15*
X73327127Y-67495000D03*
X73327127Y-69395000D03*
X75202127Y-68445000D03*
D18*
X104556627Y-142280500D03*
X106456627Y-142280500D03*
X105506627Y-140405500D03*
D13*
X108150127Y-148455000D03*
X109975127Y-148455000D03*
D11*
X71724627Y-125952500D03*
X71724627Y-127777500D03*
D16*
X123691127Y-50157000D03*
X121866127Y-50157000D03*
D12*
X71216627Y-44465500D03*
X71216627Y-42640500D03*
D26*
X45847000Y-123982200D03*
X45847000Y-126932200D03*
D13*
X101038127Y-144391000D03*
X102863127Y-144391000D03*
D15*
X57990500Y-106869200D03*
X57990500Y-108769200D03*
X59865500Y-107819200D03*
D16*
X145923127Y-59817000D03*
X144098127Y-59817000D03*
D11*
X71216627Y-56864500D03*
X71216627Y-58689500D03*
D22*
X57803627Y-150584500D03*
X55903627Y-150584500D03*
X56853627Y-152459500D03*
D18*
X111668627Y-142280500D03*
X113568627Y-142280500D03*
X112618627Y-140405500D03*
D15*
X62913127Y-85529000D03*
X62913127Y-87429000D03*
X64788127Y-86479000D03*
D18*
X104556627Y-146344500D03*
X106456627Y-146344500D03*
X105506627Y-144469500D03*
D17*
X62476196Y-132733200D03*
X62476196Y-130833200D03*
D13*
X53181696Y-72093200D03*
X55006696Y-72093200D03*
D18*
X86776627Y-154472500D03*
X88676627Y-154472500D03*
X87726627Y-152597500D03*
D12*
X60802627Y-83835500D03*
X60802627Y-82010500D03*
D20*
X59882500Y-123821200D03*
X56957500Y-123821200D03*
D11*
X36418627Y-103346500D03*
X36418627Y-105171500D03*
D17*
X55294771Y-54678100D03*
X55294771Y-52778100D03*
D11*
X77820627Y-125952500D03*
X77820627Y-127777500D03*
X54706627Y-103346500D03*
X54706627Y-105171500D03*
D16*
X142367127Y-56007000D03*
X140542127Y-56007000D03*
D13*
X86308127Y-52189000D03*
X88133127Y-52189000D03*
D16*
X145923127Y-75057000D03*
X144098127Y-75057000D03*
D22*
X127284627Y-46171500D03*
X125384627Y-46171500D03*
X126334627Y-48046500D03*
X120174627Y-46171500D03*
X118274627Y-46171500D03*
X119224627Y-48046500D03*
D12*
X81122627Y-105171500D03*
X81122627Y-103346500D03*
D18*
X86776627Y-150408500D03*
X88676627Y-150408500D03*
X87726627Y-148533500D03*
D11*
X68930627Y-82010500D03*
X68930627Y-83835500D03*
X67660627Y-140176500D03*
X67660627Y-142001500D03*
D22*
X109506627Y-50235500D03*
X107606627Y-50235500D03*
X108556627Y-52110500D03*
D12*
X56738627Y-83835500D03*
X56738627Y-82010500D03*
D26*
X50927000Y-123982200D03*
X50927000Y-126932200D03*
D22*
X95282627Y-42107500D03*
X93382627Y-42107500D03*
X94332627Y-43982500D03*
D23*
X124236627Y-144391000D03*
X122336627Y-144391000D03*
D15*
X55950696Y-68349200D03*
X55950696Y-70249200D03*
X57825696Y-69299200D03*
X71041127Y-99753000D03*
X71041127Y-101653000D03*
X72916127Y-100703000D03*
D16*
X145923127Y-67437000D03*
X144098127Y-67437000D03*
D15*
X47822696Y-68349200D03*
X47822696Y-70249200D03*
X49697696Y-69299200D03*
D22*
X91726627Y-50235500D03*
X89826627Y-50235500D03*
X90776627Y-52110500D03*
D11*
X67218627Y-56864500D03*
X67218627Y-58689500D03*
D15*
X40561127Y-99753000D03*
X40561127Y-101653000D03*
X42436127Y-100703000D03*
D11*
X55468627Y-140176500D03*
X55468627Y-142001500D03*
D12*
X71216627Y-51577500D03*
X71216627Y-49752500D03*
X77312627Y-40909500D03*
X77312627Y-39084500D03*
D16*
X142390500Y-133477000D03*
X140565500Y-133477000D03*
D15*
X61135127Y-46159000D03*
X61135127Y-48059000D03*
X63010127Y-47109000D03*
X75867127Y-147251000D03*
X75867127Y-149151000D03*
X77742127Y-148201000D03*
X71803127Y-143695000D03*
X71803127Y-145595000D03*
X73678127Y-144645000D03*
D12*
X52674627Y-90947500D03*
X52674627Y-89122500D03*
D15*
X59611127Y-147251000D03*
X59611127Y-149151000D03*
X61486127Y-148201000D03*
X77391127Y-67495000D03*
X77391127Y-69395000D03*
X79266127Y-68445000D03*
X54785127Y-89085000D03*
X54785127Y-90985000D03*
X56660127Y-90035000D03*
X79169127Y-99753000D03*
X79169127Y-101653000D03*
X81044127Y-100703000D03*
X72311127Y-122359000D03*
X72311127Y-124259000D03*
X74186127Y-123309000D03*
D12*
X54706627Y-94503500D03*
X54706627Y-92678500D03*
D15*
X79931127Y-136583000D03*
X79931127Y-138483000D03*
X81806127Y-137533000D03*
D13*
X61414127Y-59809000D03*
X63239127Y-59809000D03*
D15*
X61135127Y-39047000D03*
X61135127Y-40947000D03*
X63010127Y-39997000D03*
D12*
X64866627Y-101615500D03*
X64866627Y-99790500D03*
D18*
X79664627Y-121960500D03*
X81564627Y-121960500D03*
X80614627Y-120085500D03*
D22*
X109506627Y-46171500D03*
X107606627Y-46171500D03*
X108556627Y-48046500D03*
D16*
X142390500Y-115697000D03*
X140565500Y-115697000D03*
D15*
X47195500Y-120189200D03*
X47195500Y-122089200D03*
X49070500Y-121139200D03*
D18*
X57312627Y-41188500D03*
X59212627Y-41188500D03*
X58262627Y-39313500D03*
D15*
X61135127Y-42603000D03*
X61135127Y-44503000D03*
X63010127Y-43553000D03*
D11*
X69184627Y-56864500D03*
X69184627Y-58689500D03*
D15*
X60881127Y-103309000D03*
X60881127Y-105209000D03*
X62756127Y-104259000D03*
X63675127Y-147251000D03*
X63675127Y-149151000D03*
X65550127Y-148201000D03*
X81455127Y-53271000D03*
X81455127Y-55171000D03*
X83330127Y-54221000D03*
D13*
X86308127Y-42029000D03*
X88133127Y-42029000D03*
D15*
X63675127Y-150807000D03*
X63675127Y-152707000D03*
X65550127Y-151757000D03*
D16*
X105913127Y-50157000D03*
X104088127Y-50157000D03*
D15*
X73327127Y-63939000D03*
X73327127Y-65839000D03*
X75202127Y-64889000D03*
X66118500Y-112203200D03*
X66118500Y-114103200D03*
X67993500Y-113153200D03*
D13*
X76146127Y-122039000D03*
X77971127Y-122039000D03*
D11*
X54706627Y-96234500D03*
X54706627Y-98059500D03*
X75280627Y-46196500D03*
X75280627Y-48021500D03*
D15*
X65199127Y-39047000D03*
X65199127Y-40947000D03*
X67074127Y-39997000D03*
X44625127Y-96197000D03*
X44625127Y-98097000D03*
X46500127Y-97147000D03*
D16*
X64158500Y-122043200D03*
X62333500Y-122043200D03*
D15*
X62913127Y-78417000D03*
X62913127Y-80317000D03*
X64788127Y-79367000D03*
D13*
X115262127Y-152519000D03*
X117087127Y-152519000D03*
X101038127Y-142359000D03*
X102863127Y-142359000D03*
D27*
X59895000Y-118741200D03*
X56945000Y-118741200D03*
D15*
X79169127Y-106865000D03*
X79169127Y-108765000D03*
X81044127Y-107815000D03*
D16*
X95751127Y-154551000D03*
X93926127Y-154551000D03*
D15*
X71803127Y-133027000D03*
X71803127Y-134927000D03*
X73678127Y-133977000D03*
X57694127Y-74880000D03*
X57694127Y-76780000D03*
X59569127Y-75830000D03*
D13*
X61414127Y-69969000D03*
X63239127Y-69969000D03*
D22*
X105950627Y-46171500D03*
X104050627Y-46171500D03*
X105000627Y-48046500D03*
D16*
X145923127Y-86487000D03*
X144098127Y-86487000D03*
X142390500Y-125857000D03*
X140565500Y-125857000D03*
D15*
X69263127Y-53271000D03*
X69263127Y-55171000D03*
X71138127Y-54221000D03*
D18*
X79664627Y-154472500D03*
X81564627Y-154472500D03*
X80614627Y-152597500D03*
D13*
X115262127Y-150487000D03*
X117087127Y-150487000D03*
D15*
X69263127Y-46159000D03*
X69263127Y-48059000D03*
X71138127Y-47109000D03*
D16*
X142390500Y-108077000D03*
X140565500Y-108077000D03*
D15*
X79931127Y-129471000D03*
X79931127Y-131371000D03*
X81806127Y-130421000D03*
D16*
X142367127Y-58547000D03*
X140542127Y-58547000D03*
D12*
X72994627Y-105171500D03*
X72994627Y-103346500D03*
D15*
X69263127Y-63939000D03*
X69263127Y-65839000D03*
X71138127Y-64889000D03*
D11*
X73756627Y-136620500D03*
X73756627Y-138445500D03*
D19*
X66820127Y-98097000D03*
X66820127Y-96197000D03*
X64945127Y-97147000D03*
D15*
X77391127Y-46159000D03*
X77391127Y-48059000D03*
X79266127Y-47109000D03*
D22*
X95282627Y-50235500D03*
X93382627Y-50235500D03*
X94332627Y-52110500D03*
D15*
X73327127Y-49715000D03*
X73327127Y-51615000D03*
X75202127Y-50665000D03*
X93139127Y-38285000D03*
X93139127Y-40185000D03*
X95014127Y-39235000D03*
D16*
X145923127Y-64897000D03*
X144098127Y-64897000D03*
D15*
X40561127Y-103309000D03*
X40561127Y-105209000D03*
X42436127Y-104259000D03*
X75867127Y-150807000D03*
X75867127Y-152707000D03*
X77742127Y-151757000D03*
D16*
X142390500Y-130937000D03*
X140565500Y-130937000D03*
D12*
X38450627Y-101615500D03*
X38450627Y-99790500D03*
X48610627Y-83835500D03*
X48610627Y-82010500D03*
D22*
X116618627Y-46171500D03*
X114718627Y-46171500D03*
X115668627Y-48046500D03*
D15*
X66372500Y-121855200D03*
X66372500Y-123755200D03*
X68247500Y-122805200D03*
D12*
X81122627Y-94503500D03*
X81122627Y-92678500D03*
D15*
X62308500Y-123887200D03*
X62308500Y-125787200D03*
X64183500Y-124837200D03*
X67739127Y-143695000D03*
X67739127Y-145595000D03*
X69614127Y-144645000D03*
D13*
X108150127Y-154551000D03*
X109975127Y-154551000D03*
D15*
X48689127Y-106865000D03*
X48689127Y-108765000D03*
X50564127Y-107815000D03*
D16*
X124199127Y-146423000D03*
X122374127Y-146423000D03*
X142367127Y-66167000D03*
X140542127Y-66167000D03*
D15*
X61135127Y-53271000D03*
X61135127Y-55171000D03*
X63010127Y-54221000D03*
D18*
X57312627Y-45252500D03*
X59212627Y-45252500D03*
X58262627Y-43377500D03*
X108112627Y-142280500D03*
X110012627Y-142280500D03*
X109062627Y-140405500D03*
D15*
X40561127Y-106865000D03*
X40561127Y-108765000D03*
X42436127Y-107815000D03*
X58849127Y-78417000D03*
X58849127Y-80317000D03*
X60724127Y-79367000D03*
D12*
X46832627Y-90947500D03*
X46832627Y-89122500D03*
D10*
X104048627Y-44061000D03*
X105948627Y-44061000D03*
D11*
X50642627Y-92678500D03*
X50642627Y-94503500D03*
D15*
X65199127Y-67495000D03*
X65199127Y-69395000D03*
X67074127Y-68445000D03*
X81455127Y-39047000D03*
X81455127Y-40947000D03*
X83330127Y-39997000D03*
D12*
X73248627Y-76469500D03*
X73248627Y-74644500D03*
D22*
X106456627Y-152597500D03*
X104556627Y-152597500D03*
X105506627Y-154472500D03*
D13*
X61414127Y-61841000D03*
X63239127Y-61841000D03*
D15*
X66977127Y-89085000D03*
X66977127Y-90985000D03*
X68852127Y-90035000D03*
D18*
X79664627Y-126024500D03*
X81564627Y-126024500D03*
X80614627Y-124149500D03*
D15*
X54785127Y-78417000D03*
X54785127Y-80317000D03*
X56660127Y-79367000D03*
D24*
X43307000Y-126932200D03*
X43307000Y-123982200D03*
D22*
X116618627Y-42107500D03*
X114718627Y-42107500D03*
X115668627Y-43982500D03*
D11*
X52674627Y-96234500D03*
X52674627Y-98059500D03*
D15*
X69263127Y-60383000D03*
X69263127Y-62283000D03*
X71138127Y-61333000D03*
D12*
X48610627Y-101615500D03*
X48610627Y-99790500D03*
D15*
X77391127Y-71051000D03*
X77391127Y-72951000D03*
X79266127Y-72001000D03*
D18*
X118780627Y-138216500D03*
X120680627Y-138216500D03*
X119730627Y-136341500D03*
D22*
X125252627Y-148533500D03*
X123352627Y-148533500D03*
X124302627Y-150408500D03*
D11*
X68930627Y-92678500D03*
X68930627Y-94503500D03*
D13*
X86308127Y-46093000D03*
X88133127Y-46093000D03*
D16*
X123691127Y-48125000D03*
X121866127Y-48125000D03*
D11*
X65628627Y-140176500D03*
X65628627Y-142001500D03*
X75788627Y-136620500D03*
X75788627Y-138445500D03*
D22*
X116618627Y-50235500D03*
X114718627Y-50235500D03*
X115668627Y-52110500D03*
D18*
X90332627Y-146344500D03*
X92232627Y-146344500D03*
X91282627Y-144469500D03*
D15*
X79169127Y-89085000D03*
X79169127Y-90985000D03*
X81044127Y-90035000D03*
D13*
X76146127Y-124071000D03*
X77971127Y-124071000D03*
D15*
X65199127Y-74607000D03*
X65199127Y-76507000D03*
X67074127Y-75557000D03*
X66118500Y-108647200D03*
X66118500Y-110547200D03*
X67993500Y-109597200D03*
D12*
X61976000Y-114065700D03*
X61976000Y-112240700D03*
D18*
X57312627Y-49316500D03*
X59212627Y-49316500D03*
X58262627Y-47441500D03*
D19*
X44692127Y-90985000D03*
X44692127Y-89085000D03*
X42817127Y-90035000D03*
D15*
X79169127Y-96197000D03*
X79169127Y-98097000D03*
X81044127Y-97147000D03*
D13*
X61414127Y-65905000D03*
X63239127Y-65905000D03*
D22*
X98838627Y-42107500D03*
X96938627Y-42107500D03*
X97888627Y-43982500D03*
X98838627Y-46171500D03*
X96938627Y-46171500D03*
X97888627Y-48046500D03*
D16*
X109469127Y-39997000D03*
X107644127Y-39997000D03*
D23*
X71919627Y-138176000D03*
X70019627Y-138176000D03*
D15*
X65199127Y-46159000D03*
X65199127Y-48059000D03*
X67074127Y-47109000D03*
D22*
X91726627Y-42107500D03*
X89826627Y-42107500D03*
X90776627Y-43982500D03*
D15*
X71803127Y-140139000D03*
X71803127Y-142039000D03*
X73678127Y-141089000D03*
D18*
X86776627Y-142280500D03*
X88676627Y-142280500D03*
X87726627Y-140405500D03*
D11*
X70960327Y-92678500D03*
X70960327Y-94503500D03*
D12*
X83154627Y-105171500D03*
X83154627Y-103346500D03*
X77058627Y-105171500D03*
X77058627Y-103346500D03*
D15*
X77391127Y-60383000D03*
X77391127Y-62283000D03*
X79266127Y-61333000D03*
X44625127Y-99753000D03*
X44625127Y-101653000D03*
X46500127Y-100703000D03*
X58849127Y-89085000D03*
X58849127Y-90985000D03*
X60724127Y-90035000D03*
X77391127Y-63939000D03*
X77391127Y-65839000D03*
X79266127Y-64889000D03*
D16*
X142367127Y-73787000D03*
X140542127Y-73787000D03*
D12*
X54706627Y-83835500D03*
X54706627Y-82010500D03*
D13*
X61414127Y-74033000D03*
X63239127Y-74033000D03*
D16*
X123691127Y-46093000D03*
X121866127Y-46093000D03*
D15*
X75105127Y-99753000D03*
X75105127Y-101653000D03*
X76980127Y-100703000D03*
X75105127Y-106865000D03*
X75105127Y-108765000D03*
X76980127Y-107815000D03*
D11*
X73756627Y-125952500D03*
X73756627Y-127777500D03*
D22*
X102394627Y-46171500D03*
X100494627Y-46171500D03*
X101444627Y-48046500D03*
D11*
X77820627Y-136620500D03*
X77820627Y-138445500D03*
X50642627Y-82010500D03*
X50642627Y-83835500D03*
D13*
X125422127Y-44061000D03*
X127247127Y-44061000D03*
X101038127Y-138295000D03*
X102863127Y-138295000D03*
D16*
X142390500Y-113157000D03*
X140565500Y-113157000D03*
D12*
X62834627Y-83835500D03*
X62834627Y-82010500D03*
D18*
X86776627Y-146344500D03*
X88676627Y-146344500D03*
X87726627Y-144469500D03*
D16*
X142390500Y-102997000D03*
X140565500Y-102997000D03*
D13*
X61414127Y-57777000D03*
X63239127Y-57777000D03*
D16*
X116581127Y-37965000D03*
X114756127Y-37965000D03*
D22*
X102394627Y-42107500D03*
X100494627Y-42107500D03*
X101444627Y-43982500D03*
D15*
X43131500Y-120189200D03*
X43131500Y-122089200D03*
X45006500Y-121139200D03*
D22*
X120174627Y-50235500D03*
X118274627Y-50235500D03*
X119224627Y-52110500D03*
D12*
X73248627Y-55133500D03*
X73248627Y-53308500D03*
D11*
X59532627Y-140176500D03*
X59532627Y-142001500D03*
D16*
X113531127Y-150487000D03*
X111706127Y-150487000D03*
D18*
X79664627Y-146344500D03*
X81564627Y-146344500D03*
X80614627Y-144469500D03*
D16*
X85083127Y-150487000D03*
X83258127Y-150487000D03*
D18*
X90332627Y-154472500D03*
X92232627Y-154472500D03*
X91282627Y-152597500D03*
D15*
X60895627Y-92641000D03*
X60895627Y-94541000D03*
X62770627Y-93591000D03*
D22*
X113062627Y-46171500D03*
X111162627Y-46171500D03*
X112112627Y-48046500D03*
D12*
X58770627Y-83835500D03*
X58770627Y-82010500D03*
D15*
X44625127Y-106865000D03*
X44625127Y-108765000D03*
X46500127Y-107815000D03*
D16*
X142390500Y-136017000D03*
X140565500Y-136017000D03*
D15*
X71041127Y-96197000D03*
X71041127Y-98097000D03*
X72916127Y-97147000D03*
X65199127Y-60383000D03*
X65199127Y-62283000D03*
X67074127Y-61333000D03*
X60895627Y-96197000D03*
X60895627Y-98097000D03*
X62770627Y-97147000D03*
X81455127Y-42603000D03*
X81455127Y-44503000D03*
X83330127Y-43553000D03*
D22*
X102394627Y-50235500D03*
X100494627Y-50235500D03*
X101444627Y-52110500D03*
D11*
X63596627Y-140176500D03*
X63596627Y-142001500D03*
D12*
X79090627Y-94503500D03*
X79090627Y-92678500D03*
D19*
X40628127Y-90985000D03*
X40628127Y-89085000D03*
X38753127Y-90035000D03*
D18*
X101000627Y-150408500D03*
X102900627Y-150408500D03*
X101950627Y-148533500D03*
D16*
X95751127Y-152519000D03*
X93926127Y-152519000D03*
D22*
X98838627Y-50235500D03*
X96938627Y-50235500D03*
X97888627Y-52110500D03*
D15*
X40561127Y-92641000D03*
X40561127Y-94541000D03*
X42436127Y-93591000D03*
D18*
X83220627Y-146344500D03*
X85120627Y-146344500D03*
X84170627Y-144469500D03*
D16*
X113531127Y-148455000D03*
X111706127Y-148455000D03*
D15*
X71803127Y-129471000D03*
X71803127Y-131371000D03*
X73678127Y-130421000D03*
X54785127Y-85529000D03*
X54785127Y-87429000D03*
X56660127Y-86479000D03*
D13*
X76146127Y-120007000D03*
X77971127Y-120007000D03*
D15*
X50721127Y-85529000D03*
X50721127Y-87429000D03*
X52596127Y-86479000D03*
X56817127Y-103309000D03*
X56817127Y-105209000D03*
X58692127Y-104259000D03*
X69263127Y-67495000D03*
X69263127Y-69395000D03*
X71138127Y-68445000D03*
D16*
X145923127Y-57277000D03*
X144098127Y-57277000D03*
D22*
X113062627Y-50235500D03*
X111162627Y-50235500D03*
X112112627Y-52110500D03*
D16*
X85083127Y-152519000D03*
X83258127Y-152519000D03*
D11*
X75026627Y-103346500D03*
X75026627Y-105171500D03*
D22*
X113062627Y-42107500D03*
X111162627Y-42107500D03*
X112112627Y-43982500D03*
D15*
X44625127Y-81973000D03*
X44625127Y-83873000D03*
X46500127Y-82923000D03*
D16*
X142390500Y-100203000D03*
X140565500Y-100203000D03*
D15*
X75867127Y-133027000D03*
X75867127Y-134927000D03*
X77742127Y-133977000D03*
D11*
X71216627Y-39084500D03*
X71216627Y-40909500D03*
X52674627Y-82010500D03*
X52674627Y-83835500D03*
D15*
X66372500Y-125411200D03*
X66372500Y-127311200D03*
X68247500Y-126361200D03*
D13*
X118312127Y-37965000D03*
X120137127Y-37965000D03*
D15*
X56817127Y-96197000D03*
X56817127Y-98097000D03*
X58692127Y-97147000D03*
X73327127Y-71051000D03*
X73327127Y-72951000D03*
X75202127Y-72001000D03*
D13*
X101038127Y-140327000D03*
X102863127Y-140327000D03*
D16*
X145923127Y-62357000D03*
X144098127Y-62357000D03*
D12*
X75280627Y-40909500D03*
X75280627Y-39084500D03*
X79090627Y-105171500D03*
X79090627Y-103346500D03*
D22*
X127284627Y-50235500D03*
X125384627Y-50235500D03*
X126334627Y-52110500D03*
X121696627Y-148533500D03*
X119796627Y-148533500D03*
X120746627Y-150408500D03*
D16*
X145923127Y-69977000D03*
X144098127Y-69977000D03*
X142390500Y-123317000D03*
X140565500Y-123317000D03*
D15*
X77391127Y-53271000D03*
X77391127Y-55171000D03*
X79266127Y-54221000D03*
D18*
X104556627Y-138216500D03*
X106456627Y-138216500D03*
X105506627Y-136341500D03*
D12*
X48610627Y-80279500D03*
X48610627Y-78454500D03*
D15*
X59611127Y-143695000D03*
X59611127Y-145595000D03*
X61486127Y-144645000D03*
D19*
X75202127Y-58727000D03*
X75202127Y-56827000D03*
X73327127Y-57777000D03*
D13*
X111200127Y-37965000D03*
X113025127Y-37965000D03*
D22*
X64196000Y-116025700D03*
X62296000Y-116025700D03*
X63246000Y-117900700D03*
D16*
X142367127Y-61087000D03*
X140542127Y-61087000D03*
D15*
X56817127Y-99753000D03*
X56817127Y-101653000D03*
X58692127Y-100703000D03*
X51886696Y-68349200D03*
X51886696Y-70249200D03*
X53761696Y-69299200D03*
D22*
X124497627Y-136349500D03*
X122597627Y-136349500D03*
X123547627Y-138224500D03*
D15*
X59611127Y-150807000D03*
X59611127Y-152707000D03*
X61486127Y-151757000D03*
X77391127Y-42603000D03*
X77391127Y-44503000D03*
X79266127Y-43553000D03*
D12*
X66898627Y-101615500D03*
X66898627Y-99790500D03*
D24*
X38227000Y-126932200D03*
X38227000Y-123982200D03*
D18*
X93888627Y-140248500D03*
X95788627Y-140248500D03*
X94838627Y-138373500D03*
D15*
X71803127Y-147251000D03*
X71803127Y-149151000D03*
X73678127Y-148201000D03*
X44625127Y-103309000D03*
X44625127Y-105209000D03*
X46500127Y-104259000D03*
D19*
X63929500Y-110547200D03*
X63929500Y-108647200D03*
X62054500Y-109597200D03*
D12*
X72994627Y-94503500D03*
X72994627Y-92678500D03*
D11*
X65186627Y-56864500D03*
X65186627Y-58689500D03*
D13*
X86308127Y-48125000D03*
X88133127Y-48125000D03*
D15*
X40561127Y-96197000D03*
X40561127Y-98097000D03*
X42436127Y-97147000D03*
X58849127Y-85529000D03*
X58849127Y-87429000D03*
X60724127Y-86479000D03*
D27*
X59895000Y-121281200D03*
X56945000Y-121281200D03*
D16*
X142390500Y-118237000D03*
X140565500Y-118237000D03*
D15*
X63675127Y-143695000D03*
X63675127Y-145595000D03*
X65550127Y-144645000D03*
D19*
X50564127Y-98097000D03*
X50564127Y-96197000D03*
X48689127Y-97147000D03*
D18*
X55280627Y-132120500D03*
X57180627Y-132120500D03*
X56230627Y-130245500D03*
X97444627Y-150408500D03*
X99344627Y-150408500D03*
X98394627Y-148533500D03*
D16*
X145923127Y-49657000D03*
X144098127Y-49657000D03*
X116581127Y-39997000D03*
X114756127Y-39997000D03*
D18*
X53756627Y-45252500D03*
X55656627Y-45252500D03*
X54706627Y-43377500D03*
D13*
X108150127Y-152519000D03*
X109975127Y-152519000D03*
D12*
X64008000Y-114065700D03*
X64008000Y-112240700D03*
X75280627Y-44465500D03*
X75280627Y-42640500D03*
D15*
X55547127Y-143695000D03*
X55547127Y-145595000D03*
X57422127Y-144645000D03*
D13*
X61414127Y-72001000D03*
X63239127Y-72001000D03*
D16*
X142367127Y-48387000D03*
X140542127Y-48387000D03*
X142367127Y-68707000D03*
X140542127Y-68707000D03*
X64158500Y-120011200D03*
X62333500Y-120011200D03*
D28*
X48821696Y-63711200D03*
X51746696Y-63711200D03*
D18*
X53756627Y-49316500D03*
X55656627Y-49316500D03*
X54706627Y-47441500D03*
D15*
X75867127Y-143695000D03*
X75867127Y-145595000D03*
X77742127Y-144645000D03*
D19*
X64429696Y-138483000D03*
X64429696Y-136583000D03*
X62554696Y-137533000D03*
D13*
X115262127Y-148455000D03*
X117087127Y-148455000D03*
D16*
X142390500Y-120777000D03*
X140565500Y-120777000D03*
D18*
X55280627Y-136184500D03*
X57180627Y-136184500D03*
X56230627Y-134309500D03*
D16*
X145923127Y-72517000D03*
X144098127Y-72517000D03*
D11*
X79344627Y-56864500D03*
X79344627Y-58689500D03*
D18*
X90332627Y-142280500D03*
X92232627Y-142280500D03*
X91282627Y-140405500D03*
X111668627Y-138216500D03*
X113568627Y-138216500D03*
X112618627Y-136341500D03*
D12*
X79344627Y-40909500D03*
X79344627Y-39084500D03*
D13*
X118312127Y-39997000D03*
X120137127Y-39997000D03*
D15*
X66977127Y-85529000D03*
X66977127Y-87429000D03*
X68852127Y-86479000D03*
D16*
X109469127Y-37965000D03*
X107644127Y-37965000D03*
D12*
X48610627Y-94503500D03*
X48610627Y-92678500D03*
D18*
X79664627Y-150408500D03*
X81564627Y-150408500D03*
X80614627Y-148533500D03*
D13*
X86308127Y-50157000D03*
X88133127Y-50157000D03*
D10*
X53652196Y-66251200D03*
X55552196Y-66251200D03*
D12*
X66540196Y-138537700D03*
X66540196Y-136712700D03*
D15*
X75867127Y-129471000D03*
X75867127Y-131371000D03*
X77742127Y-130421000D03*
D18*
X79664627Y-117896500D03*
X81564627Y-117896500D03*
X80614627Y-116021500D03*
D12*
X54706627Y-101615500D03*
X54706627Y-99790500D03*
D11*
X75026627Y-92678500D03*
X75026627Y-94503500D03*
D23*
X48798627Y-85717000D03*
X46898627Y-85717000D03*
D16*
X95751127Y-142359000D03*
X93926127Y-142359000D03*
D17*
X68930627Y-105209000D03*
X68930627Y-103309000D03*
D15*
X75105127Y-89085000D03*
X75105127Y-90985000D03*
X76980127Y-90035000D03*
D18*
X115224627Y-146344500D03*
X117124627Y-146344500D03*
X116174627Y-144469500D03*
D16*
X145923127Y-52197000D03*
X144098127Y-52197000D03*
X142367127Y-71247000D03*
X140542127Y-71247000D03*
D20*
X51746696Y-66251200D03*
X48821696Y-66251200D03*
D15*
X39067500Y-120189200D03*
X39067500Y-122089200D03*
X40942500Y-121139200D03*
D18*
X97444627Y-142280500D03*
X99344627Y-142280500D03*
X98394627Y-140405500D03*
X118780627Y-142280500D03*
X120680627Y-142280500D03*
X119730627Y-140405500D03*
D15*
X62913127Y-89085000D03*
X62913127Y-90985000D03*
X64788127Y-90035000D03*
D16*
X142390500Y-105537000D03*
X140565500Y-105537000D03*
D11*
X36418627Y-96234500D03*
X36418627Y-98059500D03*
X70960327Y-103346500D03*
X70960327Y-105171500D03*
D18*
X111668627Y-154472500D03*
X113568627Y-154472500D03*
X112618627Y-152597500D03*
D22*
X59212627Y-53029500D03*
X57312627Y-53029500D03*
X58262627Y-54904500D03*
D15*
X79169127Y-110421000D03*
X79169127Y-112321000D03*
X81044127Y-111371000D03*
D22*
X91726627Y-46171500D03*
X89826627Y-46171500D03*
X90776627Y-48046500D03*
D10*
X53398196Y-63711200D03*
X55298196Y-63711200D03*
D16*
X85083127Y-148455000D03*
X83258127Y-148455000D03*
D11*
X77312627Y-56864500D03*
X77312627Y-58689500D03*
X61564627Y-140176500D03*
X61564627Y-142001500D03*
D18*
X108112627Y-138216500D03*
X110012627Y-138216500D03*
X109062627Y-136341500D03*
D22*
X125252627Y-152597500D03*
X123352627Y-152597500D03*
X124302627Y-154472500D03*
D19*
X50564127Y-105209000D03*
X50564127Y-103309000D03*
X48689127Y-104259000D03*
D16*
X142367127Y-50927000D03*
X140542127Y-50927000D03*
D15*
X61135127Y-49715000D03*
X61135127Y-51615000D03*
X63010127Y-50665000D03*
D13*
X115262127Y-154551000D03*
X117087127Y-154551000D03*
D16*
X51450696Y-72093200D03*
X49625696Y-72093200D03*
D12*
X50642627Y-90947500D03*
X50642627Y-89122500D03*
D16*
X57143127Y-138295000D03*
X55318127Y-138295000D03*
D15*
X44625127Y-92641000D03*
X44625127Y-94541000D03*
X46500127Y-93591000D03*
X75867127Y-140139000D03*
X75867127Y-142039000D03*
X77742127Y-141089000D03*
D18*
X97444627Y-146344500D03*
X99344627Y-146344500D03*
X98394627Y-144469500D03*
M02*
