(kicad_sch (version 20211123) (generator eeschema)

  (uuid 2398ad58-6004-45ba-b44a-eed9bb018404)

  (paper "A4")

  (lib_symbols
    (symbol "Device:R_US" (pin_numbers hide) (pin_names (offset 0)) (in_bom yes) (on_board yes)
      (property "Reference" "R" (id 0) (at 2.54 0 90)
        (effects (font (size 1.27 1.27)))
      )
      (property "Value" "R_US" (id 1) (at -2.54 0 90)
        (effects (font (size 1.27 1.27)))
      )
      (property "Footprint" "" (id 2) (at 1.016 -0.254 90)
        (effects (font (size 1.27 1.27)) hide)
      )
      (property "Datasheet" "~" (id 3) (at 0 0 0)
        (effects (font (size 1.27 1.27)) hide)
      )
      (property "ki_keywords" "R res resistor" (id 4) (at 0 0 0)
        (effects (font (size 1.27 1.27)) hide)
      )
      (property "ki_description" "Resistor, US symbol" (id 5) (at 0 0 0)
        (effects (font (size 1.27 1.27)) hide)
      )
      (property "ki_fp_filters" "R_*" (id 6) (at 0 0 0)
        (effects (font (size 1.27 1.27)) hide)
      )
      (symbol "R_US_0_1"
        (polyline
          (pts
            (xy 0 -2.286)
            (xy 0 -2.54)
          )
          (stroke (width 0) (type default) (color 0 0 0 0))
          (fill (type none))
        )
        (polyline
          (pts
            (xy 0 2.286)
            (xy 0 2.54)
          )
          (stroke (width 0) (type default) (color 0 0 0 0))
          (fill (type none))
        )
        (polyline
          (pts
            (xy 0 -0.762)
            (xy 1.016 -1.143)
            (xy 0 -1.524)
            (xy -1.016 -1.905)
            (xy 0 -2.286)
          )
          (stroke (width 0) (type default) (color 0 0 0 0))
          (fill (type none))
        )
        (polyline
          (pts
            (xy 0 0.762)
            (xy 1.016 0.381)
            (xy 0 0)
            (xy -1.016 -0.381)
            (xy 0 -0.762)
          )
          (stroke (width 0) (type default) (color 0 0 0 0))
          (fill (type none))
        )
        (polyline
          (pts
            (xy 0 2.286)
            (xy 1.016 1.905)
            (xy 0 1.524)
            (xy -1.016 1.143)
            (xy 0 0.762)
          )
          (stroke (width 0) (type default) (color 0 0 0 0))
          (fill (type none))
        )
      )
      (symbol "R_US_1_1"
        (pin passive line (at 0 3.81 270) (length 1.27)
          (name "~" (effects (font (size 1.27 1.27))))
          (number "1" (effects (font (size 1.27 1.27))))
        )
        (pin passive line (at 0 -3.81 90) (length 1.27)
          (name "~" (effects (font (size 1.27 1.27))))
          (number "2" (effects (font (size 1.27 1.27))))
        )
      )
    )
    (symbol "Transistor_FET:2N7002" (pin_names hide) (in_bom yes) (on_board yes)
      (property "Reference" "Q" (id 0) (at 5.08 1.905 0)
        (effects (font (size 1.27 1.27)) (justify left))
      )
      (property "Value" "2N7002" (id 1) (at 5.08 0 0)
        (effects (font (size 1.27 1.27)) (justify left))
      )
      (property "Footprint" "Package_TO_SOT_SMD:SOT-23" (id 2) (at 5.08 -1.905 0)
        (effects (font (size 1.27 1.27) italic) (justify left) hide)
      )
      (property "Datasheet" "https://www.onsemi.com/pub/Collateral/NDS7002A-D.PDF" (id 3) (at 0 0 0)
        (effects (font (size 1.27 1.27)) (justify left) hide)
      )
      (property "ki_keywords" "N-Channel Switching MOSFET" (id 4) (at 0 0 0)
        (effects (font (size 1.27 1.27)) hide)
      )
      (property "ki_description" "0.115A Id, 60V Vds, N-Channel MOSFET, SOT-23" (id 5) (at 0 0 0)
        (effects (font (size 1.27 1.27)) hide)
      )
      (property "ki_fp_filters" "SOT?23*" (id 6) (at 0 0 0)
        (effects (font (size 1.27 1.27)) hide)
      )
      (symbol "2N7002_0_1"
        (polyline
          (pts
            (xy 0.254 0)
            (xy -2.54 0)
          )
          (stroke (width 0) (type default) (color 0 0 0 0))
          (fill (type none))
        )
        (polyline
          (pts
            (xy 0.254 1.905)
            (xy 0.254 -1.905)
          )
          (stroke (width 0.254) (type default) (color 0 0 0 0))
          (fill (type none))
        )
        (polyline
          (pts
            (xy 0.762 -1.27)
            (xy 0.762 -2.286)
          )
          (stroke (width 0.254) (type default) (color 0 0 0 0))
          (fill (type none))
        )
        (polyline
          (pts
            (xy 0.762 0.508)
            (xy 0.762 -0.508)
          )
          (stroke (width 0.254) (type default) (color 0 0 0 0))
          (fill (type none))
        )
        (polyline
          (pts
            (xy 0.762 2.286)
            (xy 0.762 1.27)
          )
          (stroke (width 0.254) (type default) (color 0 0 0 0))
          (fill (type none))
        )
        (polyline
          (pts
            (xy 2.54 2.54)
            (xy 2.54 1.778)
          )
          (stroke (width 0) (type default) (color 0 0 0 0))
          (fill (type none))
        )
        (polyline
          (pts
            (xy 2.54 -2.54)
            (xy 2.54 0)
            (xy 0.762 0)
          )
          (stroke (width 0) (type default) (color 0 0 0 0))
          (fill (type none))
        )
        (polyline
          (pts
            (xy 0.762 -1.778)
            (xy 3.302 -1.778)
            (xy 3.302 1.778)
            (xy 0.762 1.778)
          )
          (stroke (width 0) (type default) (color 0 0 0 0))
          (fill (type none))
        )
        (polyline
          (pts
            (xy 1.016 0)
            (xy 2.032 0.381)
            (xy 2.032 -0.381)
            (xy 1.016 0)
          )
          (stroke (width 0) (type default) (color 0 0 0 0))
          (fill (type outline))
        )
        (polyline
          (pts
            (xy 2.794 0.508)
            (xy 2.921 0.381)
            (xy 3.683 0.381)
            (xy 3.81 0.254)
          )
          (stroke (width 0) (type default) (color 0 0 0 0))
          (fill (type none))
        )
        (polyline
          (pts
            (xy 3.302 0.381)
            (xy 2.921 -0.254)
            (xy 3.683 -0.254)
            (xy 3.302 0.381)
          )
          (stroke (width 0) (type default) (color 0 0 0 0))
          (fill (type none))
        )
        (circle (center 1.651 0) (radius 2.794)
          (stroke (width 0.254) (type default) (color 0 0 0 0))
          (fill (type none))
        )
        (circle (center 2.54 -1.778) (radius 0.254)
          (stroke (width 0) (type default) (color 0 0 0 0))
          (fill (type outline))
        )
        (circle (center 2.54 1.778) (radius 0.254)
          (stroke (width 0) (type default) (color 0 0 0 0))
          (fill (type outline))
        )
      )
      (symbol "2N7002_1_1"
        (pin input line (at -5.08 0 0) (length 2.54)
          (name "G" (effects (font (size 1.27 1.27))))
          (number "1" (effects (font (size 1.27 1.27))))
        )
        (pin passive line (at 2.54 -5.08 90) (length 2.54)
          (name "S" (effects (font (size 1.27 1.27))))
          (number "2" (effects (font (size 1.27 1.27))))
        )
        (pin passive line (at 2.54 5.08 270) (length 2.54)
          (name "D" (effects (font (size 1.27 1.27))))
          (number "3" (effects (font (size 1.27 1.27))))
        )
      )
    )
    (symbol "power:GND" (power) (pin_names (offset 0)) (in_bom yes) (on_board yes)
      (property "Reference" "#PWR" (id 0) (at 0 -6.35 0)
        (effects (font (size 1.27 1.27)) hide)
      )
      (property "Value" "GND" (id 1) (at 0 -3.81 0)
        (effects (font (size 1.27 1.27)))
      )
      (property "Footprint" "" (id 2) (at 0 0 0)
        (effects (font (size 1.27 1.27)) hide)
      )
      (property "Datasheet" "" (id 3) (at 0 0 0)
        (effects (font (size 1.27 1.27)) hide)
      )
      (property "ki_keywords" "global power" (id 4) (at 0 0 0)
        (effects (font (size 1.27 1.27)) hide)
      )
      (property "ki_description" "Power symbol creates a global label with name \"GND\" , ground" (id 5) (at 0 0 0)
        (effects (font (size 1.27 1.27)) hide)
      )
      (symbol "GND_0_1"
        (polyline
          (pts
            (xy 0 0)
            (xy 0 -1.27)
            (xy 1.27 -1.27)
            (xy 0 -2.54)
            (xy -1.27 -1.27)
            (xy 0 -1.27)
          )
          (stroke (width 0) (type default) (color 0 0 0 0))
          (fill (type none))
        )
      )
      (symbol "GND_1_1"
        (pin power_in line (at 0 0 270) (length 0) hide
          (name "GND" (effects (font (size 1.27 1.27))))
          (number "1" (effects (font (size 1.27 1.27))))
        )
      )
    )
    (symbol "power:VDD" (power) (pin_names (offset 0)) (in_bom yes) (on_board yes)
      (property "Reference" "#PWR" (id 0) (at 0 -3.81 0)
        (effects (font (size 1.27 1.27)) hide)
      )
      (property "Value" "VDD" (id 1) (at 0 3.81 0)
        (effects (font (size 1.27 1.27)))
      )
      (property "Footprint" "" (id 2) (at 0 0 0)
        (effects (font (size 1.27 1.27)) hide)
      )
      (property "Datasheet" "" (id 3) (at 0 0 0)
        (effects (font (size 1.27 1.27)) hide)
      )
      (property "ki_keywords" "power-flag" (id 4) (at 0 0 0)
        (effects (font (size 1.27 1.27)) hide)
      )
      (property "ki_description" "Power symbol creates a global label with name \"VDD\"" (id 5) (at 0 0 0)
        (effects (font (size 1.27 1.27)) hide)
      )
      (symbol "VDD_0_1"
        (polyline
          (pts
            (xy -0.762 1.27)
            (xy 0 2.54)
          )
          (stroke (width 0) (type default) (color 0 0 0 0))
          (fill (type none))
        )
        (polyline
          (pts
            (xy 0 0)
            (xy 0 2.54)
          )
          (stroke (width 0) (type default) (color 0 0 0 0))
          (fill (type none))
        )
        (polyline
          (pts
            (xy 0 2.54)
            (xy 0.762 1.27)
          )
          (stroke (width 0) (type default) (color 0 0 0 0))
          (fill (type none))
        )
      )
      (symbol "VDD_1_1"
        (pin power_in line (at 0 0 90) (length 0) hide
          (name "VDD" (effects (font (size 1.27 1.27))))
          (number "1" (effects (font (size 1.27 1.27))))
        )
      )
    )
  )

  (junction (at 187.96 63.5) (diameter 0) (color 0 0 0 0)
    (uuid 007c8177-e1eb-4a23-8776-2a8373cfa330)
  )
  (junction (at 187.96 45.085) (diameter 0) (color 0 0 0 0)
    (uuid 09d34f43-6b72-4fc0-9ba0-8d508682bb12)
  )
  (junction (at 152.4 58.42) (diameter 0) (color 0 0 0 0)
    (uuid 5e2ad1d0-8424-4456-99cc-b948533b168b)
  )
  (junction (at 180.34 58.42) (diameter 0) (color 0 0 0 0)
    (uuid 71509d01-fcec-478f-9b79-744c7a26312e)
  )
  (junction (at 104.775 85.09) (diameter 0) (color 0 0 0 0)
    (uuid 7efdba9f-a607-461f-a8b5-3f95206b876c)
  )
  (junction (at 208.28 58.42) (diameter 0) (color 0 0 0 0)
    (uuid 9bc5270b-f944-4319-8537-9f1bc45899fe)
  )
  (junction (at 104.775 58.42) (diameter 0) (color 0 0 0 0)
    (uuid d587936d-f95f-4b8c-a0dd-e7636dfb5ca2)
  )
  (junction (at 160.02 63.5) (diameter 0) (color 0 0 0 0)
    (uuid f1098788-6e6a-4d51-b331-a37a88a86503)
  )

  (wire (pts (xy 143.51 58.42) (xy 152.4 58.42))
    (stroke (width 0) (type default) (color 0 0 0 0))
    (uuid 0dca896a-500d-4550-be46-669fb5d565a1)
  )
  (wire (pts (xy 199.39 58.42) (xy 208.28 58.42))
    (stroke (width 0) (type default) (color 0 0 0 0))
    (uuid 3aa372bb-6524-4fff-b9ca-042409faf0fc)
  )
  (wire (pts (xy 112.395 47.625) (xy 112.395 53.34))
    (stroke (width 0) (type default) (color 0 0 0 0))
    (uuid 43e779c5-48c3-4a99-94a2-faff214a2439)
  )
  (wire (pts (xy 93.98 58.42) (xy 104.775 58.42))
    (stroke (width 0) (type default) (color 0 0 0 0))
    (uuid 85cac92b-6b7e-4c28-9e98-762e784223b3)
  )
  (wire (pts (xy 187.96 63.5) (xy 215.9 63.5))
    (stroke (width 0) (type default) (color 0 0 0 0))
    (uuid 8c776dc7-98c5-4942-8323-8ac3eb811c61)
  )
  (wire (pts (xy 215.9 53.34) (xy 215.9 45.085))
    (stroke (width 0) (type default) (color 0 0 0 0))
    (uuid 93d80d21-e158-4ea1-b95e-62a3b9bcfc91)
  )
  (wire (pts (xy 187.96 53.34) (xy 187.96 45.085))
    (stroke (width 0) (type default) (color 0 0 0 0))
    (uuid 9fee2f66-8d0e-497c-8f29-2684ba049b38)
  )
  (wire (pts (xy 117.475 74.295) (xy 112.395 74.295))
    (stroke (width 0) (type default) (color 0 0 0 0))
    (uuid a421912e-f9e2-48d8-9e1b-9ac89f673334)
  )
  (wire (pts (xy 112.395 74.295) (xy 112.395 80.01))
    (stroke (width 0) (type default) (color 0 0 0 0))
    (uuid ac101889-5de4-47cc-b1ee-3eec945cb17a)
  )
  (wire (pts (xy 171.45 58.42) (xy 180.34 58.42))
    (stroke (width 0) (type default) (color 0 0 0 0))
    (uuid bf91321b-e70a-41f3-ac7b-6569d12298e5)
  )
  (wire (pts (xy 117.475 47.625) (xy 112.395 47.625))
    (stroke (width 0) (type default) (color 0 0 0 0))
    (uuid bfaac163-0eb7-443a-84d9-79eb38f60431)
  )
  (wire (pts (xy 93.98 85.09) (xy 104.775 85.09))
    (stroke (width 0) (type default) (color 0 0 0 0))
    (uuid c022fc5d-bb39-4bad-98bc-2160c2588f69)
  )
  (wire (pts (xy 187.96 45.085) (xy 160.02 45.085))
    (stroke (width 0) (type default) (color 0 0 0 0))
    (uuid c37bfb34-b66a-4fbe-b1a8-fb9f5c8be93e)
  )
  (wire (pts (xy 215.9 45.085) (xy 187.96 45.085))
    (stroke (width 0) (type default) (color 0 0 0 0))
    (uuid e53a6e41-fcf4-4658-a53f-0d7df5450de6)
  )
  (wire (pts (xy 160.02 63.5) (xy 187.96 63.5))
    (stroke (width 0) (type default) (color 0 0 0 0))
    (uuid e9f395ef-3a2b-4ce6-a3dc-76e6c24ab420)
  )
  (wire (pts (xy 160.02 45.085) (xy 160.02 53.34))
    (stroke (width 0) (type default) (color 0 0 0 0))
    (uuid ef05f1bf-e8c9-429a-97a8-01889d44e16b)
  )

  (label "Ra1" (at 117.475 47.625 180)
    (effects (font (size 1.27 1.27)) (justify right bottom))
    (uuid 2f7ff025-a55f-48e1-8e67-da4b29ba9d5f)
  )
  (label "C5" (at 199.39 58.42 0)
    (effects (font (size 1.27 1.27)) (justify left bottom))
    (uuid 46497c77-371f-43a1-b880-a50037d03689)
  )
  (label "C4" (at 171.45 58.42 0)
    (effects (font (size 1.27 1.27)) (justify left bottom))
    (uuid 79eb8a98-8bf5-4212-86e1-c2a88dbaf3fc)
  )
  (label "Q32S" (at 160.655 45.085 0)
    (effects (font (size 1.27 1.27)) (justify left bottom))
    (uuid 7dcf879c-85bb-4b0c-b1ad-d3126b66375f)
  )
  (label "~{RES}" (at 93.98 85.09 0)
    (effects (font (size 1.27 1.27)) (justify left bottom))
    (uuid 8ea26d1d-db58-476c-a217-710520899415)
  )
  (label "~{C7}" (at 93.98 58.42 0)
    (effects (font (size 1.27 1.27)) (justify left bottom))
    (uuid d2f9d4b4-b8b2-4ac2-b03b-40144ed18c5a)
  )
  (label "C3" (at 143.51 58.42 0)
    (effects (font (size 1.27 1.27)) (justify left bottom))
    (uuid d6eada26-17ec-42b2-97f2-0d8be3c533bb)
  )
  (label "RES" (at 117.475 74.295 180)
    (effects (font (size 1.27 1.27)) (justify right bottom))
    (uuid f79c36fa-fa60-47b6-8517-c9cec4ecdd92)
  )

  (symbol (lib_id "Device:R_US") (at 104.775 54.61 0) (unit 1)
    (in_bom yes) (on_board yes)
    (uuid 00a02b81-221b-4c4f-8169-73c3d3ee00a5)
    (property "Reference" "R1" (id 0) (at 103.505 53.34 0)
      (effects (font (size 1.27 1.27)) (justify right))
    )
    (property "Value" "9.1k" (id 1) (at 99.2409 55.8464 0)
      (effects (font (size 1.27 1.27)) (justify left))
    )
    (property "Footprint" "Resistor_SMD:R_0805_2012Metric" (id 2) (at 105.791 54.864 90)
      (effects (font (size 1.27 1.27)) hide)
    )
    (property "Datasheet" "~" (id 3) (at 104.775 54.61 0)
      (effects (font (size 1.27 1.27)) hide)
    )
    (pin "1" (uuid 24992e8a-0b27-4283-a043-27dc61688942))
    (pin "2" (uuid 37cdbc08-e73f-4a7a-8e9f-55afeac0a563))
  )

  (symbol (lib_id "Device:R_US") (at 152.4 54.61 0) (unit 1)
    (in_bom yes) (on_board yes)
    (uuid 0e64eff1-d05d-463a-bb97-0c670094ad98)
    (property "Reference" "R2" (id 0) (at 151.13 53.34 0)
      (effects (font (size 1.27 1.27)) (justify right))
    )
    (property "Value" "9.1k" (id 1) (at 146.8659 55.8464 0)
      (effects (font (size 1.27 1.27)) (justify left))
    )
    (property "Footprint" "Resistor_SMD:R_0805_2012Metric" (id 2) (at 153.416 54.864 90)
      (effects (font (size 1.27 1.27)) hide)
    )
    (property "Datasheet" "~" (id 3) (at 152.4 54.61 0)
      (effects (font (size 1.27 1.27)) hide)
    )
    (pin "1" (uuid 46360bd6-f1bc-4e1c-af06-2197a1df7fab))
    (pin "2" (uuid d2125681-3f78-4716-814f-5f73dcd64ff6))
  )

  (symbol (lib_id "Transistor_FET:2N7002") (at 109.855 85.09 0) (unit 1)
    (in_bom yes) (on_board yes) (fields_autoplaced)
    (uuid 2cd80007-3547-4c28-860f-9889eb509f29)
    (property "Reference" "Q5" (id 0) (at 115.062 84.2553 0)
      (effects (font (size 1.27 1.27)) (justify left))
    )
    (property "Value" "2N7002" (id 1) (at 115.062 86.7922 0)
      (effects (font (size 1.27 1.27)) (justify left))
    )
    (property "Footprint" "Package_TO_SOT_SMD:SOT-23" (id 2) (at 114.935 86.995 0)
      (effects (font (size 1.27 1.27) italic) (justify left) hide)
    )
    (property "Datasheet" "https://www.onsemi.com/pub/Collateral/NDS7002A-D.PDF" (id 3) (at 109.855 85.09 0)
      (effects (font (size 1.27 1.27)) (justify left) hide)
    )
    (pin "1" (uuid 152bafbd-e9ce-49ab-a31d-9dee056c0e25))
    (pin "2" (uuid 38e244f7-c401-40a4-8f3e-2a0ae5bcd407))
    (pin "3" (uuid f492e77c-8de8-4297-b895-207cd8f5cf4c))
  )

  (symbol (lib_id "power:GND") (at 112.395 63.5 0) (unit 1)
    (in_bom yes) (on_board yes) (fields_autoplaced)
    (uuid 580f0808-e707-4289-8ea5-6bc85f62c718)
    (property "Reference" "#PWR02" (id 0) (at 112.395 69.85 0)
      (effects (font (size 1.27 1.27)) hide)
    )
    (property "Value" "GND" (id 1) (at 112.395 67.9434 0))
    (property "Footprint" "" (id 2) (at 112.395 63.5 0)
      (effects (font (size 1.27 1.27)) hide)
    )
    (property "Datasheet" "" (id 3) (at 112.395 63.5 0)
      (effects (font (size 1.27 1.27)) hide)
    )
    (pin "1" (uuid 9bef2f33-e56b-4dbf-b64e-d6b95cb6a5e5))
  )

  (symbol (lib_id "power:GND") (at 112.395 90.17 0) (unit 1)
    (in_bom yes) (on_board yes) (fields_autoplaced)
    (uuid 5c46a778-d053-4b2f-a2bf-b0ffe0c759ad)
    (property "Reference" "#PWR0102" (id 0) (at 112.395 96.52 0)
      (effects (font (size 1.27 1.27)) hide)
    )
    (property "Value" "GND" (id 1) (at 112.395 94.6134 0))
    (property "Footprint" "" (id 2) (at 112.395 90.17 0)
      (effects (font (size 1.27 1.27)) hide)
    )
    (property "Datasheet" "" (id 3) (at 112.395 90.17 0)
      (effects (font (size 1.27 1.27)) hide)
    )
    (pin "1" (uuid 70f13abb-4672-47c8-a4c0-78fa05250d33))
  )

  (symbol (lib_id "power:VDD") (at 104.775 50.8 0) (unit 1)
    (in_bom yes) (on_board yes) (fields_autoplaced)
    (uuid 66796194-3cbd-4f78-a185-3a7b58512ab4)
    (property "Reference" "#PWR01" (id 0) (at 104.775 54.61 0)
      (effects (font (size 1.27 1.27)) hide)
    )
    (property "Value" "VDD" (id 1) (at 104.775 47.2242 0))
    (property "Footprint" "" (id 2) (at 104.775 50.8 0)
      (effects (font (size 1.27 1.27)) hide)
    )
    (property "Datasheet" "" (id 3) (at 104.775 50.8 0)
      (effects (font (size 1.27 1.27)) hide)
    )
    (pin "1" (uuid 8c1d28a6-8c46-4b39-b123-fa9dddcb490b))
  )

  (symbol (lib_id "Transistor_FET:2N7002") (at 185.42 58.42 0) (unit 1)
    (in_bom yes) (on_board yes) (fields_autoplaced)
    (uuid 66f6e8b9-07e9-4eed-9708-63be1ec72a39)
    (property "Reference" "Q3" (id 0) (at 190.627 57.5853 0)
      (effects (font (size 1.27 1.27)) (justify left))
    )
    (property "Value" "2N7002" (id 1) (at 190.627 60.1222 0)
      (effects (font (size 1.27 1.27)) (justify left))
    )
    (property "Footprint" "Package_TO_SOT_SMD:SOT-23" (id 2) (at 190.5 60.325 0)
      (effects (font (size 1.27 1.27) italic) (justify left) hide)
    )
    (property "Datasheet" "https://www.onsemi.com/pub/Collateral/NDS7002A-D.PDF" (id 3) (at 185.42 58.42 0)
      (effects (font (size 1.27 1.27)) (justify left) hide)
    )
    (pin "1" (uuid 20d76d6e-c02b-4e5d-9b48-52e6c2c5ff47))
    (pin "2" (uuid 095019db-6f04-4e20-89c0-4c324f5575dc))
    (pin "3" (uuid 28e0f278-c69f-46a2-893b-506378fae9f3))
  )

  (symbol (lib_id "power:VDD") (at 152.4 50.8 0) (unit 1)
    (in_bom yes) (on_board yes) (fields_autoplaced)
    (uuid 6af5fd54-2c68-4b34-bc61-ecde69da1826)
    (property "Reference" "#PWR03" (id 0) (at 152.4 54.61 0)
      (effects (font (size 1.27 1.27)) hide)
    )
    (property "Value" "VDD" (id 1) (at 152.4 47.2242 0))
    (property "Footprint" "" (id 2) (at 152.4 50.8 0)
      (effects (font (size 1.27 1.27)) hide)
    )
    (property "Datasheet" "" (id 3) (at 152.4 50.8 0)
      (effects (font (size 1.27 1.27)) hide)
    )
    (pin "1" (uuid 10d5cb47-fade-4873-9f32-54508f4bede5))
  )

  (symbol (lib_id "Transistor_FET:2N7002") (at 109.855 58.42 0) (unit 1)
    (in_bom yes) (on_board yes) (fields_autoplaced)
    (uuid 7c3e8cc6-8d5d-4ab8-bf70-69a62bfba7c6)
    (property "Reference" "Q1" (id 0) (at 115.062 57.5853 0)
      (effects (font (size 1.27 1.27)) (justify left))
    )
    (property "Value" "2N7002" (id 1) (at 115.062 60.1222 0)
      (effects (font (size 1.27 1.27)) (justify left))
    )
    (property "Footprint" "Package_TO_SOT_SMD:SOT-23" (id 2) (at 114.935 60.325 0)
      (effects (font (size 1.27 1.27) italic) (justify left) hide)
    )
    (property "Datasheet" "https://www.onsemi.com/pub/Collateral/NDS7002A-D.PDF" (id 3) (at 109.855 58.42 0)
      (effects (font (size 1.27 1.27)) (justify left) hide)
    )
    (pin "1" (uuid c048acbb-f76b-4dcc-a302-9bf3e366960b))
    (pin "2" (uuid 85ad865c-e433-42a1-ad23-886534ea6976))
    (pin "3" (uuid ea51bc98-558c-45f5-bc6f-a1232f3ce8f2))
  )

  (symbol (lib_id "power:GND") (at 160.02 63.5 0) (unit 1)
    (in_bom yes) (on_board yes) (fields_autoplaced)
    (uuid a5100be4-3f88-45f4-baaa-dfd47e3d8fa6)
    (property "Reference" "#PWR05" (id 0) (at 160.02 69.85 0)
      (effects (font (size 1.27 1.27)) hide)
    )
    (property "Value" "GND" (id 1) (at 160.02 67.9434 0))
    (property "Footprint" "" (id 2) (at 160.02 63.5 0)
      (effects (font (size 1.27 1.27)) hide)
    )
    (property "Datasheet" "" (id 3) (at 160.02 63.5 0)
      (effects (font (size 1.27 1.27)) hide)
    )
    (pin "1" (uuid 45b94f05-93a1-41bb-88f2-e822f7bd0a29))
  )

  (symbol (lib_id "power:VDD") (at 180.34 50.8 0) (unit 1)
    (in_bom yes) (on_board yes) (fields_autoplaced)
    (uuid b0161600-b77d-4239-8bf6-b996547e1b2b)
    (property "Reference" "#PWR04" (id 0) (at 180.34 54.61 0)
      (effects (font (size 1.27 1.27)) hide)
    )
    (property "Value" "VDD" (id 1) (at 180.34 47.2242 0))
    (property "Footprint" "" (id 2) (at 180.34 50.8 0)
      (effects (font (size 1.27 1.27)) hide)
    )
    (property "Datasheet" "" (id 3) (at 180.34 50.8 0)
      (effects (font (size 1.27 1.27)) hide)
    )
    (pin "1" (uuid 2130bac1-d838-4aa1-a058-ff0a2b6d4813))
  )

  (symbol (lib_id "Device:R_US") (at 104.775 81.28 0) (unit 1)
    (in_bom yes) (on_board yes)
    (uuid b60ae7d7-80c7-46c8-a725-3a77d584800a)
    (property "Reference" "R5" (id 0) (at 103.505 80.01 0)
      (effects (font (size 1.27 1.27)) (justify right))
    )
    (property "Value" "9.1k" (id 1) (at 99.2409 82.5164 0)
      (effects (font (size 1.27 1.27)) (justify left))
    )
    (property "Footprint" "Resistor_SMD:R_0805_2012Metric" (id 2) (at 105.791 81.534 90)
      (effects (font (size 1.27 1.27)) hide)
    )
    (property "Datasheet" "~" (id 3) (at 104.775 81.28 0)
      (effects (font (size 1.27 1.27)) hide)
    )
    (pin "1" (uuid 7b6a7e75-bea5-4501-b3dc-0d1fb45d443d))
    (pin "2" (uuid b7f0244b-0d87-4dae-8ee1-09de704edca4))
  )

  (symbol (lib_id "power:VDD") (at 208.28 50.8 0) (unit 1)
    (in_bom yes) (on_board yes) (fields_autoplaced)
    (uuid c279f246-6e9b-4897-8519-a6cc451c9742)
    (property "Reference" "#PWR06" (id 0) (at 208.28 54.61 0)
      (effects (font (size 1.27 1.27)) hide)
    )
    (property "Value" "VDD" (id 1) (at 208.28 47.2242 0))
    (property "Footprint" "" (id 2) (at 208.28 50.8 0)
      (effects (font (size 1.27 1.27)) hide)
    )
    (property "Datasheet" "" (id 3) (at 208.28 50.8 0)
      (effects (font (size 1.27 1.27)) hide)
    )
    (pin "1" (uuid 2d6ea4e2-3c91-42a6-afa4-cd9c82c642c8))
  )

  (symbol (lib_id "Transistor_FET:2N7002") (at 213.36 58.42 0) (unit 1)
    (in_bom yes) (on_board yes) (fields_autoplaced)
    (uuid ca8c7f5f-ea76-466a-b713-7335e6146a7f)
    (property "Reference" "Q4" (id 0) (at 218.567 57.5853 0)
      (effects (font (size 1.27 1.27)) (justify left))
    )
    (property "Value" "2N7002" (id 1) (at 218.567 60.1222 0)
      (effects (font (size 1.27 1.27)) (justify left))
    )
    (property "Footprint" "Package_TO_SOT_SMD:SOT-23" (id 2) (at 218.44 60.325 0)
      (effects (font (size 1.27 1.27) italic) (justify left) hide)
    )
    (property "Datasheet" "https://www.onsemi.com/pub/Collateral/NDS7002A-D.PDF" (id 3) (at 213.36 58.42 0)
      (effects (font (size 1.27 1.27)) (justify left) hide)
    )
    (pin "1" (uuid cf050c18-a309-4425-a579-dc7c92b5a570))
    (pin "2" (uuid a25a8c6c-ef1d-4d2b-a0fe-06047708b183))
    (pin "3" (uuid b20034ab-ea61-4581-b763-04e68581d45b))
  )

  (symbol (lib_id "Device:R_US") (at 208.28 54.61 0) (unit 1)
    (in_bom yes) (on_board yes)
    (uuid cf137ad1-660d-46cd-9dd1-61c6f966ae65)
    (property "Reference" "R4" (id 0) (at 207.01 53.34 0)
      (effects (font (size 1.27 1.27)) (justify right))
    )
    (property "Value" "9.1k" (id 1) (at 202.7459 55.8464 0)
      (effects (font (size 1.27 1.27)) (justify left))
    )
    (property "Footprint" "Resistor_SMD:R_0805_2012Metric" (id 2) (at 209.296 54.864 90)
      (effects (font (size 1.27 1.27)) hide)
    )
    (property "Datasheet" "~" (id 3) (at 208.28 54.61 0)
      (effects (font (size 1.27 1.27)) hide)
    )
    (pin "1" (uuid 24fedaa0-2d14-4d86-99f5-3fb48689881f))
    (pin "2" (uuid d17551c7-23ac-484b-8dc8-d68cd952873b))
  )

  (symbol (lib_id "power:VDD") (at 104.775 77.47 0) (unit 1)
    (in_bom yes) (on_board yes) (fields_autoplaced)
    (uuid e3c6afd4-a145-4b9a-9811-edb916b1a850)
    (property "Reference" "#PWR0101" (id 0) (at 104.775 81.28 0)
      (effects (font (size 1.27 1.27)) hide)
    )
    (property "Value" "VDD" (id 1) (at 104.775 73.8942 0))
    (property "Footprint" "" (id 2) (at 104.775 77.47 0)
      (effects (font (size 1.27 1.27)) hide)
    )
    (property "Datasheet" "" (id 3) (at 104.775 77.47 0)
      (effects (font (size 1.27 1.27)) hide)
    )
    (pin "1" (uuid 3ea47234-58c0-4fa5-907b-4192d574d421))
  )

  (symbol (lib_id "Device:R_US") (at 180.34 54.61 0) (unit 1)
    (in_bom yes) (on_board yes)
    (uuid e9428893-15ea-4cf6-b270-4c9955e9852f)
    (property "Reference" "R3" (id 0) (at 179.07 53.34 0)
      (effects (font (size 1.27 1.27)) (justify right))
    )
    (property "Value" "9.1k" (id 1) (at 174.8059 55.8464 0)
      (effects (font (size 1.27 1.27)) (justify left))
    )
    (property "Footprint" "Resistor_SMD:R_0805_2012Metric" (id 2) (at 181.356 54.864 90)
      (effects (font (size 1.27 1.27)) hide)
    )
    (property "Datasheet" "~" (id 3) (at 180.34 54.61 0)
      (effects (font (size 1.27 1.27)) hide)
    )
    (pin "1" (uuid 06611174-2740-4e5d-8380-ed64e7874793))
    (pin "2" (uuid 4d298e84-6acc-4b7b-85de-afb4802bfa4f))
  )

  (symbol (lib_id "Transistor_FET:2N7002") (at 157.48 58.42 0) (unit 1)
    (in_bom yes) (on_board yes) (fields_autoplaced)
    (uuid ee78f773-af10-4823-b337-4abb8b84342d)
    (property "Reference" "Q2" (id 0) (at 162.687 57.5853 0)
      (effects (font (size 1.27 1.27)) (justify left))
    )
    (property "Value" "2N7002" (id 1) (at 162.687 60.1222 0)
      (effects (font (size 1.27 1.27)) (justify left))
    )
    (property "Footprint" "Package_TO_SOT_SMD:SOT-23" (id 2) (at 162.56 60.325 0)
      (effects (font (size 1.27 1.27) italic) (justify left) hide)
    )
    (property "Datasheet" "https://www.onsemi.com/pub/Collateral/NDS7002A-D.PDF" (id 3) (at 157.48 58.42 0)
      (effects (font (size 1.27 1.27)) (justify left) hide)
    )
    (pin "1" (uuid 90eb8c21-89df-49f3-b82d-e2386720b157))
    (pin "2" (uuid 27ee123a-78cb-4fe4-8970-b594b38a1828))
    (pin "3" (uuid 70abd5ad-fbe1-41b6-b582-4e87eaebfcf4))
  )

  (sheet_instances
    (path "/" (page "1"))
  )

  (symbol_instances
    (path "/66796194-3cbd-4f78-a185-3a7b58512ab4"
      (reference "#PWR01") (unit 1) (value "VDD") (footprint "")
    )
    (path "/580f0808-e707-4289-8ea5-6bc85f62c718"
      (reference "#PWR02") (unit 1) (value "GND") (footprint "")
    )
    (path "/6af5fd54-2c68-4b34-bc61-ecde69da1826"
      (reference "#PWR03") (unit 1) (value "VDD") (footprint "")
    )
    (path "/b0161600-b77d-4239-8bf6-b996547e1b2b"
      (reference "#PWR04") (unit 1) (value "VDD") (footprint "")
    )
    (path "/a5100be4-3f88-45f4-baaa-dfd47e3d8fa6"
      (reference "#PWR05") (unit 1) (value "GND") (footprint "")
    )
    (path "/c279f246-6e9b-4897-8519-a6cc451c9742"
      (reference "#PWR06") (unit 1) (value "VDD") (footprint "")
    )
    (path "/e3c6afd4-a145-4b9a-9811-edb916b1a850"
      (reference "#PWR0101") (unit 1) (value "VDD") (footprint "")
    )
    (path "/5c46a778-d053-4b2f-a2bf-b0ffe0c759ad"
      (reference "#PWR0102") (unit 1) (value "GND") (footprint "")
    )
    (path "/7c3e8cc6-8d5d-4ab8-bf70-69a62bfba7c6"
      (reference "Q1") (unit 1) (value "2N7002") (footprint "Package_TO_SOT_SMD:SOT-23")
    )
    (path "/ee78f773-af10-4823-b337-4abb8b84342d"
      (reference "Q2") (unit 1) (value "2N7002") (footprint "Package_TO_SOT_SMD:SOT-23")
    )
    (path "/66f6e8b9-07e9-4eed-9708-63be1ec72a39"
      (reference "Q3") (unit 1) (value "2N7002") (footprint "Package_TO_SOT_SMD:SOT-23")
    )
    (path "/ca8c7f5f-ea76-466a-b713-7335e6146a7f"
      (reference "Q4") (unit 1) (value "2N7002") (footprint "Package_TO_SOT_SMD:SOT-23")
    )
    (path "/2cd80007-3547-4c28-860f-9889eb509f29"
      (reference "Q5") (unit 1) (value "2N7002") (footprint "Package_TO_SOT_SMD:SOT-23")
    )
    (path "/00a02b81-221b-4c4f-8169-73c3d3ee00a5"
      (reference "R1") (unit 1) (value "9.1k") (footprint "Resistor_SMD:R_0805_2012Metric")
    )
    (path "/0e64eff1-d05d-463a-bb97-0c670094ad98"
      (reference "R2") (unit 1) (value "9.1k") (footprint "Resistor_SMD:R_0805_2012Metric")
    )
    (path "/e9428893-15ea-4cf6-b270-4c9955e9852f"
      (reference "R3") (unit 1) (value "9.1k") (footprint "Resistor_SMD:R_0805_2012Metric")
    )
    (path "/cf137ad1-660d-46cd-9dd1-61c6f966ae65"
      (reference "R4") (unit 1) (value "9.1k") (footprint "Resistor_SMD:R_0805_2012Metric")
    )
    (path "/b60ae7d7-80c7-46c8-a725-3a77d584800a"
      (reference "R5") (unit 1) (value "9.1k") (footprint "Resistor_SMD:R_0805_2012Metric")
    )
  )
)
